# Blender v2.78 (sub 0) OBJ File: ''
# www.blender.org
v -186.905151 155.522095 77.446938
v -186.901825 155.539795 77.493080
v -187.101685 155.559326 77.500099
v -150.070892 350.455750 0.026638
v -150.254883 350.559387 0.000217
v -150.068604 350.468018 0.053760
v -78.327759 415.359314 0.053801
v -78.393890 415.559387 0.000258
v -78.305573 415.359314 0.000258
v -0.000122 415.359314 0.000258
v -0.000122 415.559387 0.000258
v -55.370438 415.359314 -55.370045
v -55.432892 415.559387 -55.432503
v -55.348267 415.359314 -55.423592
v -106.090073 350.450775 -106.165962
v -106.246277 350.559418 -106.245934
v -186.896362 155.568939 -77.437714
v -187.101685 155.559418 -77.499908
v -186.905151 155.522186 -77.437714
v -186.909851 155.497528 -77.487206
v -215.377228 5.570999 -0.025283
v -215.583008 5.559372 0.000001
v -215.376831 5.550674 -0.025451
v -215.397888 5.524490 -0.068870
v -198.994385 -144.413818 82.397087
v -199.172729 -144.440674 82.499901
v -199.011353 -144.454315 82.367638
v -106.132019 -369.340271 106.101578
v -106.246277 -369.440735 106.245895
v -106.129974 -369.355804 106.096695
v -106.168533 -369.363800 106.075485
v -69.270203 -449.240662 69.177094
v -69.291077 -449.440674 69.290649
v -69.204681 -449.240662 69.204254
v -0.000122 -449.240662 -0.000302
v -0.000122 -449.440613 -0.000302
v -0.000122 -449.240753 97.869720
v -0.000122 -449.440765 97.991913
v 0.065407 -449.240753 97.896851
v 0.065125 -369.355804 150.084152
v -0.000122 -369.440765 150.254501
v -82.398148 -144.456711 198.980118
v -82.500122 -144.440750 199.172501
v -82.405548 -144.408554 198.987534
v -82.375763 -144.384201 199.021072
v -152.277618 5.533773 152.314255
v -152.440247 5.559256 152.440109
v -152.275940 5.550589 152.313553
v -152.258453 5.576437 152.357254
v -186.906128 155.517029 77.446938
v -198.992126 -144.408478 82.400963
v -150.071869 350.450684 0.015453
v -77.398743 155.522079 186.925125
v -77.363770 155.539780 186.955399
v -77.500122 155.559250 187.101669
v -106.097504 350.455658 106.134956
v -106.246277 350.559235 106.246361
v -106.076691 350.467926 106.152504
v -55.348251 415.359314 55.424110
v -55.432892 415.559387 55.433037
v -55.370438 415.359314 55.370567
v -0.000122 415.359314 0.000258
v -0.000122 415.559387 0.000258
v -78.305573 415.359314 0.000258
v -78.393890 415.559387 0.000258
v -78.327759 415.359314 -0.053285
v -150.087891 350.450684 -0.053684
v -150.254852 350.559387 0.000217
v -186.912506 155.568787 77.398872
v -187.101685 155.559326 77.500099
v -186.918762 155.522095 77.405128
v -186.957062 155.497375 77.373436
v -152.312622 5.570883 152.276718
v -152.440247 5.559256 152.440109
v -152.312439 5.550589 152.276321
v -152.358063 5.524405 152.260513
v -82.446716 -144.413895 198.973679
v -82.500122 -144.440750 199.172501
v -82.479553 -144.454391 198.964859
v -0.021378 -369.340302 150.071640
v -0.000122 -369.440765 150.254471
v -0.023399 -369.355804 150.066757
v -0.065651 -369.363800 150.079025
v -0.065651 -449.240753 97.896851
v -0.000122 -449.440765 97.991913
v -0.000122 -449.240753 97.869720
v -0.000122 -449.240662 -0.000302
v -0.000122 -449.440613 -0.000302
v 69.204437 -449.240662 69.204254
v 69.290840 -449.440674 69.290649
v 69.269966 -449.240662 69.177094
v 106.171715 -369.355804 106.079300
v 106.246025 -369.440735 106.245895
v 82.435944 -144.456711 198.964371
v 82.499870 -144.440750 199.172501
v 82.435944 -144.408554 198.974838
v 82.480736 -144.384201 198.977493
v 0.025871 5.533732 215.378922
v -0.000122 5.559215 215.582901
v 0.026581 5.550548 215.377213
v 0.069824 5.576427 215.395767
v -77.399445 155.517014 186.925797
v -82.442383 -144.408554 198.974838
v -106.106079 350.450592 106.127724
v 77.446724 155.522079 186.905136
v 77.492874 155.539780 186.901810
v 77.499878 155.559250 187.101669
v 0.026291 350.455658 150.070999
v -0.000122 350.559235 150.254990
v 0.053421 350.467926 150.068710
v 0.053421 415.359314 78.327904
v -0.000122 415.559387 78.394035
v -0.000122 415.359314 78.305717
v -0.000122 415.359314 0.000258
v -0.000122 415.559387 0.000258
v -55.432892 415.559387 55.433037
v -55.423981 415.359314 55.348396
v -106.166290 350.450592 106.090157
v -77.437927 155.568771 186.896317
v -77.500122 155.559250 187.101669
v -77.437927 155.522079 186.905136
v -77.487427 155.497360 186.909836
v -0.025406 5.570872 215.377121
v -0.000122 5.559215 215.582901
v -0.025574 5.550548 215.376694
v -0.068993 5.524364 215.397812
v 82.397049 -144.413895 198.994156
v 82.499878 -144.440750 199.172501
v 82.367607 -144.454391 199.011124
v 106.101707 -369.340271 106.131638
v 106.096825 -369.355804 106.129593
v 106.075623 -369.363800 106.168167
v 69.177299 -449.240662 69.269775
v -0.000122 -449.240662 -0.000302
v -0.000122 -449.440613 -0.000302
v 97.869911 -449.240662 -0.000302
v 97.992096 -449.440613 -0.000302
v 97.897049 -449.240662 -0.065823
v 150.084290 -369.355713 -0.065490
v 150.254608 -369.440643 -0.000243
v 198.980103 -144.456635 82.397942
v 199.172485 -144.440674 82.499901
v 198.987518 -144.408478 82.405342
v 199.021057 -144.384125 82.375557
v 152.314117 5.533773 152.277481
v 152.439972 5.559256 152.440109
v 152.313416 5.550589 152.275803
v 152.357117 5.576437 152.258316
v 77.446724 155.517014 186.906113
v 82.400932 -144.408554 198.991898
v 0.015114 350.450592 150.071976
v 186.924896 155.522095 77.398720
v 186.955170 155.539795 77.363731
v 187.101440 155.559326 77.500099
v 106.134613 350.455658 106.097603
v 106.246025 350.559235 106.246361
v 106.152168 350.467926 106.076790
v 55.423733 415.359314 55.348396
v 55.432652 415.559387 55.433037
v 55.370190 415.359314 55.370567
v -0.000122 415.359314 0.000258
v -0.000122 415.559387 0.000258
v -0.000122 415.359314 78.305717
v -0.000122 415.559387 78.394035
v -0.053665 415.359314 78.327904
v -0.054024 350.450592 150.087997
v -0.000122 350.559235 150.254959
v 77.398666 155.568771 186.912491
v 77.499886 155.559250 187.101669
v 77.404907 155.522079 186.918716
v 77.373222 155.497360 186.957047
v 152.276611 5.570883 152.312485
v 152.440002 5.559256 152.440109
v 152.276184 5.550589 152.312302
v 152.260406 5.524405 152.357925
v 198.973663 -144.413818 82.446495
v 199.172485 -144.440674 82.499901
v 198.964844 -144.454315 82.479332
v 150.071777 -369.340179 0.021012
v 150.254608 -369.440643 -0.000243
v 150.066895 -369.355713 0.023034
v 150.079163 -369.363708 0.065286
v 97.897049 -449.240662 0.065227
v 97.992104 -449.440613 -0.000302
v 97.869904 -449.240662 -0.000302
v -0.000122 -449.240662 -0.000302
v -0.000122 -449.440613 -0.000302
v 69.204437 -449.240662 -69.204865
v 69.290840 -449.440613 -69.291267
v 69.177299 -449.240662 -69.270393
v 106.079437 -369.355621 -106.172081
v 106.246025 -369.440552 -106.246391
v 198.964355 -144.456543 -82.436165
v 199.172485 -144.440582 -82.500092
v 198.974823 -144.408386 -82.436165
v 198.977478 -144.384033 -82.480957
v 215.378784 5.533859 -0.025992
v 215.582764 5.559372 0.000001
v 215.377075 5.550674 -0.026702
v 215.395630 5.576553 -0.069945
v 186.925568 155.517029 77.399406
v 198.974823 -144.408478 82.442162
v 106.127388 350.450592 106.106178
v 186.904907 155.522186 -77.446754
v 186.901581 155.539886 -77.492905
v 187.101440 155.559418 -77.499908
v 150.070648 350.455750 -0.026196
v 150.254608 350.559387 0.000217
v 150.068329 350.468018 -0.053326
v 78.327507 415.359314 -0.053285
v 78.393654 415.559387 0.000258
v 78.305321 415.359314 0.000258
v -0.000122 415.359314 0.000258
v -0.000122 415.559387 0.000258
v 55.432648 415.559387 55.433037
v 55.348015 415.359314 55.424126
v 106.089828 350.450592 106.166389
v 186.896088 155.568787 77.437904
v 187.101440 155.559326 77.500099
v 186.904907 155.522095 77.437904
v 186.909607 155.497375 77.487389
v 215.376984 5.570999 0.025285
v 215.582764 5.559372 0.000001
v 215.376556 5.550674 0.025453
v 215.397644 5.524490 0.068871
v 198.994141 -144.413727 -82.397270
v 199.172485 -144.440582 -82.500099
v 199.011108 -144.454224 -82.367828
v 106.131767 -369.340088 -106.102074
v 106.129738 -369.355621 -106.097191
v 106.168289 -369.363617 -106.075996
v 69.269966 -449.240662 -69.177727
v -0.000122 -449.240662 -0.000302
v -0.000122 -449.440613 -0.000302
v -0.000122 -449.240570 -97.870338
v -0.000122 -449.440521 -97.992523
v -0.065651 -449.240570 -97.897476
v -0.065369 -369.355621 -150.084656
v -0.000122 -369.440521 -150.255005
v 82.397903 -144.456467 -198.980331
v 82.499878 -144.440506 -199.172745
v 82.405312 -144.408310 -198.987747
v 82.375526 -144.383957 -199.021317
v 152.277374 5.533976 -152.314270
v 152.439972 5.559458 -152.440125
v 152.275665 5.550791 -152.313568
v 152.258209 5.576670 -152.357269
v 186.905884 155.517059 -77.446754
v 198.991882 -144.408386 -82.401154
v 150.071594 350.450684 -0.015011
v 77.398506 155.522263 -186.924927
v 77.363518 155.539963 -186.955200
v 77.499886 155.559433 -187.101471
v 106.097260 350.455780 -106.134521
v 106.246025 350.559418 -106.245934
v 106.076447 350.468109 -106.152077
v 55.348011 415.359314 -55.423588
v 55.432652 415.559387 -55.432507
v 55.370190 415.359314 -55.370045
v -0.000122 415.359314 0.000258
v -0.000122 415.559387 0.000258
v 78.305321 415.359314 0.000258
v 78.393654 415.559387 0.000258
v 78.327507 415.359314 0.053801
v 150.087616 350.450684 0.054119
v 150.254608 350.559387 0.000217
v 186.912262 155.568939 -77.398697
v 187.101440 155.559418 -77.499916
v 186.918488 155.522186 -77.404938
v 186.956818 155.497528 -77.373253
v 152.312347 5.571115 -152.276733
v 152.440002 5.559458 -152.440125
v 152.312195 5.550791 -152.276337
v 152.357788 5.524607 -152.260529
v 82.446472 -144.413651 -198.973892
v 82.499870 -144.440506 -199.172745
v 82.479309 -144.454147 -198.965103
v 0.021133 -369.340057 -150.072144
v -0.000122 -369.440521 -150.254974
v 0.023155 -369.355621 -150.067261
v 0.065407 -369.363617 -150.079529
v 0.065407 -449.240570 -97.897476
v -0.000122 -449.440521 -97.992531
v -0.000122 -449.240570 -97.870331
v -0.000122 -449.240662 -0.000302
v -0.000122 -449.440613 -0.000302
v -69.204681 -449.240662 -69.204865
v -69.291077 -449.440613 -69.291267
v -69.270203 -449.240662 -69.177727
v -106.171967 -369.355621 -106.079811
v -106.246277 -369.440552 -106.246391
v -82.436188 -144.456467 -198.964584
v -82.500122 -144.440506 -199.172745
v -82.436188 -144.408310 -198.975052
v -82.480988 -144.383957 -198.977737
v -0.026115 5.533986 -215.378922
v -0.000122 5.559499 -215.582901
v -0.026825 5.550832 -215.377213
v -0.070068 5.576680 -215.395767
v 77.399193 155.517197 -186.925598
v 82.442139 -144.408310 -198.975052
v 106.105843 350.450775 -106.127296
v -186.925140 155.522186 -77.398537
v -186.955414 155.539886 -77.363548
v -187.101685 155.559418 -77.499916
v -106.134857 350.455780 -106.097168
v -106.152405 350.468109 -106.076355
v -55.423981 415.359314 -55.347866
v -55.432892 415.559387 -55.432507
v -0.000122 415.359314 0.000258
v -0.000122 415.559387 0.000258
v -0.000122 415.359314 -78.305183
v -0.000122 415.559387 -78.393517
v 0.053421 415.359314 -78.327370
v 0.053780 350.450775 -150.087524
v -0.000122 350.559418 -150.254486
v -77.398911 155.568954 -186.912292
v -77.500122 155.559433 -187.101471
v -77.405151 155.522263 -186.918518
v -77.373474 155.497543 -186.956848
v -152.276855 5.571115 -152.312500
v -152.440247 5.559458 -152.440125
v -152.276459 5.550791 -152.312317
v -152.260651 5.524607 -152.357941
v -198.973907 -144.413727 -82.446693
v -199.172729 -144.440582 -82.500092
v -198.965088 -144.454224 -82.479530
v -150.072021 -369.340179 -0.021499
v -150.254852 -369.440643 -0.000243
v -150.067139 -369.355713 -0.023521
v -150.079407 -369.363708 -0.065772
v -97.897293 -449.240662 -0.065831
v -97.992340 -449.440613 -0.000302
v -97.870148 -449.240662 -0.000302
v -0.000122 -449.240662 -0.000302
v -0.000122 -449.440613 -0.000302
v -69.177551 -449.240662 69.269775
v -106.079681 -369.355804 106.171585
v -198.964600 -144.456635 82.435966
v -199.172729 -144.440674 82.499901
v -198.975067 -144.408478 82.435966
v -198.977722 -144.384125 82.480766
v -215.379028 5.533859 0.025994
v -215.583008 5.559372 0.000001
v -215.377319 5.550674 0.026704
v -215.395874 5.576553 0.069947
v -186.925842 155.517059 -77.399223
v -198.975067 -144.408386 -82.442360
v -106.127625 350.450775 -106.105751
v -77.446960 155.522263 -186.904938
v -77.493118 155.539963 -186.901611
v -77.500122 155.559433 -187.101471
v -0.026535 350.455780 -150.070526
v -0.000122 350.559418 -150.254517
v -0.053665 350.468109 -150.068237
v -0.053665 415.359314 -78.327370
v -0.000122 415.559387 -78.393517
v -0.000122 415.359314 -78.305183
v -0.000122 415.359314 0.000258
v -0.000122 415.559387 0.000258
v 55.432648 415.559387 -55.432503
v 55.423737 415.359314 -55.347870
v 106.166054 350.450775 -106.089737
v 77.437683 155.568954 -186.896118
v 77.499878 155.559433 -187.101471
v 77.437683 155.522263 -186.904938
v 77.487175 155.497543 -186.909637
v 0.025162 5.571126 -215.377121
v -0.000122 5.559499 -215.582901
v 0.025330 5.550832 -215.376694
v 0.068748 5.524617 -215.397781
v -82.397293 -144.413651 -198.994370
v -82.500122 -144.440506 -199.172745
v -82.367859 -144.454147 -199.011368
v -106.101959 -369.340088 -106.132133
v -106.097076 -369.355621 -106.130104
v -106.075867 -369.363617 -106.168663
v -69.177551 -449.240662 -69.270393
v -0.000122 -449.240662 -0.000302
v -0.000122 -449.440613 -0.000302
v -97.870148 -449.240662 -0.000302
v -97.992340 -449.440613 -0.000302
v -97.897293 -449.240662 0.065227
v -150.084534 -369.355713 0.065003
v -150.254883 -369.440643 -0.000243
v -198.980347 -144.456543 -82.398125
v -199.172729 -144.440582 -82.500099
v -198.987762 -144.408386 -82.405533
v -199.021301 -144.384033 -82.375748
v -152.314392 5.533976 -152.277496
v -152.440247 5.559458 -152.440125
v -152.313690 5.550791 -152.275818
v -152.357391 5.576670 -152.258331
v -77.446960 155.517197 -186.905914
v -82.401184 -144.408310 -198.992142
v -0.015358 350.450775 -150.071503
vt 0.0476 0.9990
vt 0.0010 0.9990
vt 0.0010 0.9524
vt 0.0490 0.9510
vt 0.0490 0.9976
vt 0.0024 0.9510
vt 0.0510 0.9990
vt 0.0510 0.9524
vt 0.0976 0.9990
vt 0.0990 0.9510
vt 0.0990 0.9976
vt 0.0524 0.9510
vt 0.1010 0.9990
vt 0.1010 0.9524
vt 0.1476 0.9990
vt 0.1490 0.9510
vt 0.1490 0.9976
vt 0.1024 0.9510
vt 0.1510 0.9990
vt 0.1510 0.9524
vt 0.1976 0.9990
vt 0.1990 0.9510
vt 0.1990 0.9976
vt 0.1524 0.9510
vt 0.2010 0.9990
vt 0.2010 0.9524
vt 0.2476 0.9990
vt 0.2490 0.9510
vt 0.2490 0.9976
vt 0.2024 0.9510
vt 0.2510 0.9524
vt 0.2976 0.9990
vt 0.2510 0.9990
vt 0.2524 0.9510
vt 0.2990 0.9510
vt 0.2990 0.9976
vt 0.3010 0.9990
vt 0.3010 0.9524
vt 0.3476 0.9990
vt 0.3490 0.9510
vt 0.3490 0.9976
vt 0.3024 0.9510
vt 0.3510 0.9990
vt 0.3510 0.9524
vt 0.3976 0.9990
vt 0.3990 0.9510
vt 0.3990 0.9976
vt 0.3524 0.9510
vt 0.4476 0.9990
vt 0.4010 0.9990
vt 0.4010 0.9524
vt 0.4024 0.9510
vt 0.4490 0.9510
vt 0.4490 0.9976
vt 0.4510 0.9990
vt 0.4510 0.9524
vt 0.4976 0.9990
vt 0.4990 0.9510
vt 0.4990 0.9976
vt 0.4524 0.9510
vt 0.5010 0.9990
vt 0.5010 0.9524
vt 0.5476 0.9990
vt 0.5024 0.9510
vt 0.5490 0.9510
vt 0.5490 0.9976
vt 0.5510 0.9990
vt 0.5510 0.9524
vt 0.5976 0.9990
vt 0.5990 0.9510
vt 0.5990 0.9976
vt 0.5524 0.9510
vt 0.6010 0.9990
vt 0.6010 0.9524
vt 0.6476 0.9990
vt 0.6490 0.9510
vt 0.6490 0.9976
vt 0.6024 0.9510
vt 0.6510 0.9990
vt 0.6510 0.9524
vt 0.6976 0.9990
vt 0.6524 0.9510
vt 0.6990 0.9510
vt 0.6990 0.9976
vt 0.7476 0.9990
vt 0.7010 0.9990
vt 0.7010 0.9524
vt 0.7490 0.9510
vt 0.7490 0.9976
vt 0.7024 0.9510
vt 0.7510 0.9990
vt 0.7510 0.9524
vt 0.7976 0.9990
vt 0.7990 0.9510
vt 0.7990 0.9976
vt 0.7524 0.9510
vt 0.8010 0.9990
vt 0.8010 0.9524
vt 0.8476 0.9990
vt 0.8490 0.9510
vt 0.8490 0.9976
vt 0.8024 0.9510
vt 0.8510 0.9990
vt 0.8510 0.9524
vt 0.8976 0.9990
vt 0.8990 0.9976
vt 0.8524 0.9510
vt 0.8990 0.9510
vt 0.9476 0.9990
vt 0.9010 0.9990
vt 0.9010 0.9524
vt 0.9490 0.9510
vt 0.9490 0.9976
vt 0.9024 0.9510
vt 0.9510 0.9990
vt 0.9510 0.9524
vt 0.9976 0.9990
vt 0.9990 0.9510
vt 0.9990 0.9976
vt 0.9524 0.9510
vt 0.0010 0.9490
vt 0.0010 0.9024
vt 0.0476 0.9490
vt 0.0024 0.9010
vt 0.0490 0.9010
vt 0.0490 0.9476
vt 0.0976 0.9490
vt 0.0510 0.9490
vt 0.0510 0.9024
vt 0.0990 0.9010
vt 0.0990 0.9476
vt 0.0524 0.9010
vt 0.1010 0.9490
vt 0.1010 0.9024
vt 0.1476 0.9490
vt 0.1490 0.9010
vt 0.1490 0.9476
vt 0.1024 0.9010
vt 0.1976 0.9490
vt 0.1510 0.9490
vt 0.1510 0.9024
vt 0.1990 0.9010
vt 0.1990 0.9476
vt 0.1524 0.9010
vt 0.2010 0.9490
vt 0.2010 0.9024
vt 0.2476 0.9490
vt 0.2490 0.9010
vt 0.2490 0.9476
vt 0.2024 0.9010
vt 0.2510 0.9490
vt 0.2510 0.9024
vt 0.2976 0.9490
vt 0.2524 0.9010
vt 0.2990 0.9010
vt 0.2990 0.9476
vt 0.3476 0.9490
vt 0.3010 0.9490
vt 0.3010 0.9024
vt 0.3490 0.9010
vt 0.3490 0.9476
vt 0.3024 0.9010
vt 0.3976 0.9490
vt 0.3510 0.9490
vt 0.3510 0.9024
vt 0.3524 0.9010
vt 0.3990 0.9010
vt 0.3990 0.9476
vt 0.4010 0.9490
vt 0.4010 0.9024
vt 0.4476 0.9490
vt 0.4490 0.9010
vt 0.4490 0.9476
vt 0.4024 0.9010
vt 0.4510 0.9024
vt 0.4976 0.9490
vt 0.4510 0.9490
vt 0.4990 0.9010
vt 0.4990 0.9476
vt 0.4524 0.9010
vt 0.5476 0.9490
vt 0.5010 0.9490
vt 0.5010 0.9024
vt 0.5490 0.9010
vt 0.5490 0.9476
vt 0.5024 0.9010
vt 0.5510 0.9024
vt 0.5976 0.9490
vt 0.5510 0.9490
vt 0.5524 0.9010
vt 0.5990 0.9010
vt 0.5990 0.9476
vt 0.6010 0.9490
vt 0.6010 0.9024
vt 0.6476 0.9490
vt 0.6490 0.9010
vt 0.6490 0.9476
vt 0.6024 0.9010
vt 0.6510 0.9490
vt 0.6510 0.9024
vt 0.6976 0.9490
vt 0.6524 0.9010
vt 0.6990 0.9010
vt 0.6990 0.9476
vt 0.7010 0.9024
vt 0.7476 0.9490
vt 0.7010 0.9490
vt 0.7490 0.9010
vt 0.7490 0.9476
vt 0.7024 0.9010
vt 0.7510 0.9490
vt 0.7510 0.9024
vt 0.7976 0.9490
vt 0.7524 0.9010
vt 0.7990 0.9010
vt 0.7990 0.9476
vt 0.8010 0.9024
vt 0.8476 0.9490
vt 0.8010 0.9490
vt 0.8490 0.9476
vt 0.8024 0.9010
vt 0.8490 0.9010
vt 0.8976 0.9490
vt 0.8510 0.9490
vt 0.8510 0.9024
vt 0.8990 0.9010
vt 0.8990 0.9476
vt 0.8524 0.9010
vt 0.9476 0.9490
vt 0.9010 0.9490
vt 0.9010 0.9024
vt 0.9490 0.9476
vt 0.9024 0.9010
vt 0.9490 0.9010
vt 0.9510 0.9490
vt 0.9510 0.9024
vt 0.9976 0.9490
vt 0.9990 0.9010
vt 0.9990 0.9476
vt 0.9524 0.9010
vt 0.0476 0.8990
vt 0.0010 0.8990
vt 0.0010 0.8524
vt 0.0490 0.8976
vt 0.0024 0.8510
vt 0.0490 0.8510
vt 0.0510 0.8524
vt 0.0976 0.8990
vt 0.0510 0.8990
vt 0.0990 0.8510
vt 0.0990 0.8976
vt 0.0524 0.8510
vt 0.1010 0.8524
vt 0.1476 0.8990
vt 0.1010 0.8990
vt 0.1024 0.8510
vt 0.1490 0.8510
vt 0.1490 0.8976
vt 0.1976 0.8990
vt 0.1510 0.8990
vt 0.1510 0.8524
vt 0.1990 0.8976
vt 0.1524 0.8510
vt 0.1990 0.8510
vt 0.2010 0.8524
vt 0.2476 0.8990
vt 0.2010 0.8990
vt 0.2490 0.8976
vt 0.2024 0.8510
vt 0.2490 0.8510
vt 0.2510 0.8524
vt 0.2976 0.8990
vt 0.2510 0.8990
vt 0.2990 0.8976
vt 0.2524 0.8510
vt 0.2990 0.8510
vt 0.3010 0.8524
vt 0.3476 0.8990
vt 0.3010 0.8990
vt 0.3490 0.8510
vt 0.3490 0.8976
vt 0.3024 0.8510
vt 0.3510 0.8990
vt 0.3510 0.8524
vt 0.3976 0.8990
vt 0.3990 0.8976
vt 0.3524 0.8510
vt 0.3990 0.8510
vt 0.4010 0.8990
vt 0.4010 0.8524
vt 0.4476 0.8990
vt 0.4490 0.8976
vt 0.4024 0.8510
vt 0.4490 0.8510
vt 0.4510 0.8524
vt 0.4976 0.8990
vt 0.4510 0.8990
vt 0.4990 0.8510
vt 0.4990 0.8976
vt 0.4524 0.8510
vt 0.5476 0.8990
vt 0.5010 0.8990
vt 0.5010 0.8524
vt 0.5490 0.8510
vt 0.5490 0.8976
vt 0.5024 0.8510
vt 0.5510 0.8990
vt 0.5510 0.8524
vt 0.5976 0.8990
vt 0.5990 0.8510
vt 0.5990 0.8976
vt 0.5524 0.8510
vt 0.6010 0.8990
vt 0.6010 0.8524
vt 0.6476 0.8990
vt 0.6490 0.8510
vt 0.6490 0.8976
vt 0.6024 0.8510
vt 0.6510 0.8990
vt 0.6510 0.8524
vt 0.6976 0.8990
vt 0.6990 0.8510
vt 0.6990 0.8976
vt 0.6524 0.8510
vt 0.7010 0.8990
vt 0.7010 0.8524
vt 0.7476 0.8990
vt 0.7490 0.8510
vt 0.7490 0.8976
vt 0.7024 0.8510
vt 0.7510 0.8524
vt 0.7976 0.8990
vt 0.7510 0.8990
vt 0.7524 0.8510
vt 0.7990 0.8510
vt 0.7990 0.8976
vt 0.8010 0.8990
vt 0.8010 0.8524
vt 0.8476 0.8990
vt 0.8490 0.8510
vt 0.8490 0.8976
vt 0.8024 0.8510
vt 0.8510 0.8990
vt 0.8510 0.8524
vt 0.8976 0.8990
vt 0.8990 0.8510
vt 0.8990 0.8976
vt 0.8524 0.8510
vt 0.9476 0.8990
vt 0.9010 0.8990
vt 0.9010 0.8524
vt 0.9024 0.8510
vt 0.9490 0.8510
vt 0.9490 0.8976
vt 0.9510 0.8990
vt 0.9510 0.8524
vt 0.9976 0.8990
vt 0.9990 0.8510
vt 0.9990 0.8976
vt 0.9524 0.8510
vt 0.0010 0.8490
vt 0.0010 0.8024
vt 0.0476 0.8490
vt 0.0024 0.8010
vt 0.0490 0.8010
vt 0.0490 0.8476
vt 0.0510 0.8490
vt 0.0510 0.8024
vt 0.0976 0.8490
vt 0.0990 0.8010
vt 0.0990 0.8476
vt 0.0524 0.8010
vt 0.1010 0.8490
vt 0.1010 0.8024
vt 0.1476 0.8490
vt 0.1490 0.8010
vt 0.1490 0.8476
vt 0.1024 0.8010
vt 0.1510 0.8490
vt 0.1510 0.8024
vt 0.1976 0.8490
vt 0.1524 0.8010
vt 0.1990 0.8010
vt 0.1990 0.8476
vt 0.2476 0.8490
vt 0.2010 0.8490
vt 0.2010 0.8024
vt 0.2490 0.8010
vt 0.2490 0.8476
vt 0.2024 0.8010
vt 0.2510 0.8490
vt 0.2510 0.8024
vt 0.2976 0.8490
vt 0.2990 0.8010
vt 0.2990 0.8476
vt 0.2524 0.8010
vt 0.3010 0.8490
vt 0.3010 0.8024
vt 0.3476 0.8490
vt 0.3490 0.8010
vt 0.3490 0.8476
vt 0.3024 0.8010
vt 0.3510 0.8490
vt 0.3510 0.8024
vt 0.3976 0.8490
vt 0.3990 0.8476
vt 0.3524 0.8010
vt 0.3990 0.8010
vt 0.4476 0.8490
vt 0.4010 0.8490
vt 0.4010 0.8024
vt 0.4490 0.8010
vt 0.4490 0.8476
vt 0.4024 0.8010
vt 0.4510 0.8490
vt 0.4510 0.8024
vt 0.4976 0.8490
vt 0.4990 0.8010
vt 0.4990 0.8476
vt 0.4524 0.8010
vt 0.5010 0.8490
vt 0.5010 0.8024
vt 0.5476 0.8490
vt 0.5024 0.8010
vt 0.5490 0.8010
vt 0.5490 0.8476
vt 0.5976 0.8490
vt 0.5510 0.8490
vt 0.5510 0.8024
vt 0.5990 0.8010
vt 0.5990 0.8476
vt 0.5524 0.8010
vt 0.6010 0.8490
vt 0.6010 0.8024
vt 0.6476 0.8490
vt 0.6490 0.8010
vt 0.6490 0.8476
vt 0.6024 0.8010
vt 0.6976 0.8490
vt 0.6510 0.8490
vt 0.6510 0.8024
vt 0.6990 0.8010
vt 0.6990 0.8476
vt 0.6524 0.8010
vt 0.7010 0.8490
vt 0.7010 0.8024
vt 0.7476 0.8490
vt 0.7490 0.8010
vt 0.7490 0.8476
vt 0.7024 0.8010
vt 0.7510 0.8490
vt 0.7510 0.8024
vt 0.7976 0.8490
vt 0.7524 0.8010
vt 0.7990 0.8010
vt 0.7990 0.8476
vt 0.8010 0.8490
vt 0.8010 0.8024
vt 0.8476 0.8490
vt 0.8490 0.8010
vt 0.8490 0.8476
vt 0.8024 0.8010
vt 0.8976 0.8490
vt 0.8510 0.8490
vt 0.8510 0.8024
vt 0.8524 0.8010
vt 0.8990 0.8010
vt 0.8990 0.8476
vt 0.9010 0.8490
vt 0.9010 0.8024
vt 0.9476 0.8490
vt 0.9490 0.8010
vt 0.9490 0.8476
vt 0.9024 0.8010
vt 0.9510 0.8024
vt 0.9976 0.8490
vt 0.9510 0.8490
vt 0.9990 0.8010
vt 0.9990 0.8476
vt 0.9524 0.8010
vt 0.0476 0.7990
vt 0.0010 0.7990
vt 0.0010 0.7524
vt 0.0490 0.7510
vt 0.0490 0.7976
vt 0.0024 0.7510
vt 0.0510 0.7524
vt 0.0976 0.7990
vt 0.0510 0.7990
vt 0.0524 0.7510
vt 0.0990 0.7510
vt 0.0990 0.7976
vt 0.1476 0.7990
vt 0.1010 0.7990
vt 0.1010 0.7524
vt 0.1490 0.7510
vt 0.1490 0.7976
vt 0.1024 0.7510
vt 0.1510 0.7524
vt 0.1976 0.7990
vt 0.1510 0.7990
vt 0.1524 0.7510
vt 0.1990 0.7510
vt 0.1990 0.7976
vt 0.2010 0.7524
vt 0.2476 0.7990
vt 0.2010 0.7990
vt 0.2490 0.7510
vt 0.2490 0.7976
vt 0.2024 0.7510
vt 0.2510 0.7990
vt 0.2510 0.7524
vt 0.2976 0.7990
vt 0.2524 0.7510
vt 0.2990 0.7510
vt 0.2990 0.7976
vt 0.3010 0.7524
vt 0.3476 0.7990
vt 0.3010 0.7990
vt 0.3490 0.7510
vt 0.3490 0.7976
vt 0.3024 0.7510
vt 0.3976 0.7990
vt 0.3510 0.7990
vt 0.3510 0.7524
vt 0.3990 0.7510
vt 0.3990 0.7976
vt 0.3524 0.7510
vt 0.4476 0.7990
vt 0.4010 0.7990
vt 0.4010 0.7524
vt 0.4490 0.7510
vt 0.4490 0.7976
vt 0.4024 0.7510
vt 0.4510 0.7990
vt 0.4510 0.7524
vt 0.4976 0.7990
vt 0.4990 0.7510
vt 0.4990 0.7976
vt 0.4524 0.7510
vt 0.5476 0.7990
vt 0.5010 0.7990
vt 0.5010 0.7524
vt 0.5490 0.7976
vt 0.5024 0.7510
vt 0.5490 0.7510
vt 0.5510 0.7524
vt 0.5976 0.7990
vt 0.5510 0.7990
vt 0.5990 0.7976
vt 0.5524 0.7510
vt 0.5990 0.7510
vt 0.6010 0.7524
vt 0.6476 0.7990
vt 0.6010 0.7990
vt 0.6024 0.7510
vt 0.6490 0.7510
vt 0.6490 0.7976
vt 0.6976 0.7990
vt 0.6510 0.7990
vt 0.6510 0.7524
vt 0.6990 0.7976
vt 0.6524 0.7510
vt 0.6990 0.7510
vt 0.7010 0.7524
vt 0.7476 0.7990
vt 0.7010 0.7990
vt 0.7490 0.7976
vt 0.7024 0.7510
vt 0.7490 0.7510
vt 0.7510 0.7524
vt 0.7976 0.7990
vt 0.7510 0.7990
vt 0.7990 0.7976
vt 0.7524 0.7510
vt 0.7990 0.7510
vt 0.8010 0.7990
vt 0.8010 0.7524
vt 0.8476 0.7990
vt 0.8024 0.7510
vt 0.8490 0.7510
vt 0.8490 0.7976
vt 0.8510 0.7990
vt 0.8510 0.7524
vt 0.8976 0.7990
vt 0.8990 0.7976
vt 0.8524 0.7510
vt 0.8990 0.7510
vt 0.9010 0.7990
vt 0.9010 0.7524
vt 0.9476 0.7990
vt 0.9490 0.7976
vt 0.9024 0.7510
vt 0.9490 0.7510
vt 0.9510 0.7524
vt 0.9976 0.7990
vt 0.9510 0.7990
vt 0.9524 0.7510
vt 0.9990 0.7510
vt 0.9990 0.7976
vt 0.0476 0.7490
vt 0.0010 0.7490
vt 0.0010 0.7024
vt 0.0490 0.7010
vt 0.0490 0.7476
vt 0.0024 0.7010
vt 0.0510 0.7490
vt 0.0510 0.7024
vt 0.0976 0.7490
vt 0.0990 0.7010
vt 0.0990 0.7476
vt 0.0524 0.7010
vt 0.1010 0.7490
vt 0.1010 0.7024
vt 0.1476 0.7490
vt 0.1490 0.7010
vt 0.1490 0.7476
vt 0.1024 0.7010
vt 0.1510 0.7490
vt 0.1510 0.7024
vt 0.1976 0.7490
vt 0.1990 0.7010
vt 0.1990 0.7476
vt 0.1524 0.7010
vt 0.2010 0.7490
vt 0.2010 0.7024
vt 0.2476 0.7490
vt 0.2490 0.7010
vt 0.2490 0.7476
vt 0.2024 0.7010
vt 0.2510 0.7024
vt 0.2976 0.7490
vt 0.2510 0.7490
vt 0.2524 0.7010
vt 0.2990 0.7010
vt 0.2990 0.7476
vt 0.3010 0.7490
vt 0.3010 0.7024
vt 0.3476 0.7490
vt 0.3490 0.7010
vt 0.3490 0.7476
vt 0.3024 0.7010
vt 0.3510 0.7490
vt 0.3510 0.7024
vt 0.3976 0.7490
vt 0.3990 0.7010
vt 0.3990 0.7476
vt 0.3524 0.7010
vt 0.4476 0.7490
vt 0.4010 0.7490
vt 0.4010 0.7024
vt 0.4024 0.7010
vt 0.4490 0.7010
vt 0.4490 0.7476
vt 0.4510 0.7490
vt 0.4510 0.7024
vt 0.4976 0.7490
vt 0.4990 0.7010
vt 0.4990 0.7476
vt 0.4524 0.7010
vt 0.5010 0.7490
vt 0.5010 0.7024
vt 0.5476 0.7490
vt 0.5024 0.7010
vt 0.5490 0.7010
vt 0.5490 0.7476
vt 0.5510 0.7490
vt 0.5510 0.7024
vt 0.5976 0.7490
vt 0.5990 0.7010
vt 0.5990 0.7476
vt 0.5524 0.7010
vt 0.6010 0.7490
vt 0.6010 0.7024
vt 0.6476 0.7490
vt 0.6490 0.7010
vt 0.6490 0.7476
vt 0.6024 0.7010
vt 0.6510 0.7490
vt 0.6510 0.7024
vt 0.6976 0.7490
vt 0.6524 0.7010
vt 0.6990 0.7010
vt 0.6990 0.7476
vt 0.7476 0.7490
vt 0.7010 0.7490
vt 0.7010 0.7024
vt 0.7490 0.7010
vt 0.7490 0.7476
vt 0.7024 0.7010
vt 0.7510 0.7490
vt 0.7510 0.7024
vt 0.7976 0.7490
vt 0.7990 0.7010
vt 0.7990 0.7476
vt 0.7524 0.7010
vt 0.8010 0.7490
vt 0.8010 0.7024
vt 0.8476 0.7490
vt 0.8490 0.7010
vt 0.8490 0.7476
vt 0.8024 0.7010
vt 0.8510 0.7490
vt 0.8510 0.7024
vt 0.8976 0.7490
vt 0.8990 0.7476
vt 0.8524 0.7010
vt 0.8990 0.7010
vt 0.9476 0.7490
vt 0.9010 0.7490
vt 0.9010 0.7024
vt 0.9490 0.7010
vt 0.9490 0.7476
vt 0.9024 0.7010
vt 0.9510 0.7490
vt 0.9510 0.7024
vt 0.9976 0.7490
vt 0.9990 0.7010
vt 0.9990 0.7476
vt 0.9524 0.7010
vt 0.0010 0.6990
vt 0.0010 0.6524
vt 0.0476 0.6990
vt 0.0024 0.6510
vt 0.0490 0.6510
vt 0.0490 0.6976
vt 0.0976 0.6990
vt 0.0510 0.6990
vt 0.0510 0.6524
vt 0.0990 0.6510
vt 0.0990 0.6976
vt 0.0524 0.6510
vt 0.1010 0.6990
vt 0.1010 0.6524
vt 0.1476 0.6990
vt 0.1490 0.6510
vt 0.1490 0.6976
vt 0.1024 0.6510
vt 0.1976 0.6990
vt 0.1510 0.6990
vt 0.1510 0.6524
vt 0.1990 0.6510
vt 0.1990 0.6976
vt 0.1524 0.6510
vt 0.2010 0.6990
vt 0.2010 0.6524
vt 0.2476 0.6990
vt 0.2490 0.6510
vt 0.2490 0.6976
vt 0.2024 0.6510
vt 0.2510 0.6990
vt 0.2510 0.6524
vt 0.2976 0.6990
vt 0.2524 0.6510
vt 0.2990 0.6510
vt 0.2990 0.6976
vt 0.3476 0.6990
vt 0.3010 0.6990
vt 0.3010 0.6524
vt 0.3490 0.6510
vt 0.3490 0.6976
vt 0.3024 0.6510
vt 0.3976 0.6990
vt 0.3510 0.6990
vt 0.3510 0.6524
vt 0.3524 0.6510
vt 0.3990 0.6510
vt 0.3990 0.6976
vt 0.4010 0.6524
vt 0.4476 0.6990
vt 0.4010 0.6990
vt 0.4490 0.6510
vt 0.4490 0.6976
vt 0.4024 0.6510
vt 0.4510 0.6524
vt 0.4976 0.6990
vt 0.4510 0.6990
vt 0.4990 0.6510
vt 0.4990 0.6976
vt 0.4524 0.6510
vt 0.5476 0.6990
vt 0.5010 0.6990
vt 0.5010 0.6524
vt 0.5490 0.6510
vt 0.5490 0.6976
vt 0.5024 0.6510
vt 0.5510 0.6524
vt 0.5976 0.6990
vt 0.5510 0.6990
vt 0.5524 0.6510
vt 0.5990 0.6510
vt 0.5990 0.6976
vt 0.6476 0.6990
vt 0.6010 0.6990
vt 0.6010 0.6524
vt 0.6490 0.6510
vt 0.6490 0.6976
vt 0.6024 0.6510
vt 0.6510 0.6990
vt 0.6510 0.6524
vt 0.6976 0.6990
vt 0.6524 0.6510
vt 0.6990 0.6510
vt 0.6990 0.6976
vt 0.7010 0.6524
vt 0.7476 0.6990
vt 0.7010 0.6990
vt 0.7490 0.6510
vt 0.7490 0.6976
vt 0.7024 0.6510
vt 0.7510 0.6990
vt 0.7510 0.6524
vt 0.7976 0.6990
vt 0.7524 0.6510
vt 0.7990 0.6510
vt 0.7990 0.6976
vt 0.8010 0.6524
vt 0.8476 0.6990
vt 0.8010 0.6990
vt 0.8490 0.6510
vt 0.8490 0.6976
vt 0.8024 0.6510
vt 0.8976 0.6990
vt 0.8510 0.6990
vt 0.8510 0.6524
vt 0.8990 0.6510
vt 0.8990 0.6976
vt 0.8524 0.6510
vt 0.9476 0.6990
vt 0.9010 0.6990
vt 0.9010 0.6524
vt 0.9490 0.6976
vt 0.9024 0.6510
vt 0.9490 0.6510
vt 0.9510 0.6990
vt 0.9510 0.6524
vt 0.9976 0.6990
vt 0.9990 0.6510
vt 0.9990 0.6976
vt 0.9524 0.6510
vt 0.0476 0.6490
vt 0.0010 0.6490
vt 0.0010 0.6024
vt 0.0490 0.6476
vt 0.0024 0.6010
vt 0.0490 0.6010
vt 0.0510 0.6024
vt 0.0976 0.6490
vt 0.0510 0.6490
vt 0.0990 0.6010
vt 0.0990 0.6476
vt 0.0524 0.6010
vt 0.1010 0.6024
vt 0.1476 0.6490
vt 0.1010 0.6490
vt 0.1024 0.6010
vt 0.1490 0.6010
vt 0.1490 0.6476
vt 0.1976 0.6490
vt 0.1510 0.6490
vt 0.1510 0.6024
vt 0.1990 0.6476
vt 0.1524 0.6010
vt 0.1990 0.6010
vt 0.2010 0.6024
vt 0.2476 0.6490
vt 0.2010 0.6490
vt 0.2490 0.6476
vt 0.2024 0.6010
vt 0.2490 0.6010
vt 0.2510 0.6024
vt 0.2976 0.6490
vt 0.2510 0.6490
vt 0.2990 0.6476
vt 0.2524 0.6010
vt 0.2990 0.6010
vt 0.3010 0.6024
vt 0.3476 0.6490
vt 0.3010 0.6490
vt 0.3490 0.6010
vt 0.3490 0.6476
vt 0.3024 0.6010
vt 0.3510 0.6490
vt 0.3510 0.6024
vt 0.3976 0.6490
vt 0.3990 0.6476
vt 0.3524 0.6010
vt 0.3990 0.6010
vt 0.4010 0.6490
vt 0.4010 0.6024
vt 0.4476 0.6490
vt 0.4490 0.6476
vt 0.4024 0.6010
vt 0.4490 0.6010
vt 0.4510 0.6024
vt 0.4976 0.6490
vt 0.4510 0.6490
vt 0.4990 0.6010
vt 0.4990 0.6476
vt 0.4524 0.6010
vt 0.5476 0.6490
vt 0.5010 0.6490
vt 0.5010 0.6024
vt 0.5490 0.6010
vt 0.5490 0.6476
vt 0.5024 0.6010
vt 0.5510 0.6490
vt 0.5510 0.6024
vt 0.5976 0.6490
vt 0.5990 0.6010
vt 0.5990 0.6476
vt 0.5524 0.6010
vt 0.6010 0.6490
vt 0.6010 0.6024
vt 0.6476 0.6490
vt 0.6490 0.6010
vt 0.6490 0.6476
vt 0.6024 0.6010
vt 0.6510 0.6490
vt 0.6510 0.6024
vt 0.6976 0.6490
vt 0.6990 0.6010
vt 0.6990 0.6476
vt 0.6524 0.6010
vt 0.7010 0.6490
vt 0.7010 0.6024
vt 0.7476 0.6490
vt 0.7490 0.6010
vt 0.7490 0.6476
vt 0.7024 0.6010
vt 0.7510 0.6024
vt 0.7976 0.6490
vt 0.7510 0.6490
vt 0.7524 0.6010
vt 0.7990 0.6010
vt 0.7990 0.6476
vt 0.8010 0.6490
vt 0.8010 0.6024
vt 0.8476 0.6490
vt 0.8490 0.6010
vt 0.8490 0.6476
vt 0.8024 0.6010
vt 0.8510 0.6490
vt 0.8510 0.6024
vt 0.8976 0.6490
vt 0.8990 0.6010
vt 0.8990 0.6476
vt 0.8524 0.6010
vt 0.9476 0.6490
vt 0.9010 0.6490
vt 0.9010 0.6024
vt 0.9024 0.6010
vt 0.9490 0.6010
vt 0.9490 0.6476
vt 0.9510 0.6490
vt 0.9510 0.6024
vt 0.9976 0.6490
vt 0.9990 0.6010
vt 0.9990 0.6476
vt 0.9524 0.6010
vt 0.0010 0.5990
vt 0.0010 0.5524
vt 0.0476 0.5990
vt 0.0024 0.5510
vt 0.0490 0.5510
vt 0.0490 0.5976
vt 0.0510 0.5990
vt 0.0510 0.5524
vt 0.0976 0.5990
vt 0.0990 0.5510
vt 0.0990 0.5976
vt 0.0524 0.5510
vt 0.1010 0.5990
vt 0.1010 0.5524
vt 0.1476 0.5990
vt 0.1490 0.5510
vt 0.1490 0.5976
vt 0.1024 0.5510
vt 0.1510 0.5990
vt 0.1510 0.5524
vt 0.1976 0.5990
vt 0.1524 0.5510
vt 0.1990 0.5510
vt 0.1990 0.5976
vt 0.2476 0.5990
vt 0.2010 0.5990
vt 0.2010 0.5524
vt 0.2490 0.5510
vt 0.2490 0.5976
vt 0.2024 0.5510
vt 0.2510 0.5990
vt 0.2510 0.5524
vt 0.2976 0.5990
vt 0.2990 0.5510
vt 0.2990 0.5976
vt 0.2524 0.5510
vt 0.3010 0.5990
vt 0.3010 0.5524
vt 0.3476 0.5990
vt 0.3490 0.5510
vt 0.3490 0.5976
vt 0.3024 0.5510
vt 0.3510 0.5990
vt 0.3510 0.5524
vt 0.3976 0.5990
vt 0.3990 0.5976
vt 0.3524 0.5510
vt 0.3990 0.5510
vt 0.4476 0.5990
vt 0.4010 0.5990
vt 0.4010 0.5524
vt 0.4490 0.5510
vt 0.4490 0.5976
vt 0.4024 0.5510
vt 0.4510 0.5990
vt 0.4510 0.5524
vt 0.4976 0.5990
vt 0.4990 0.5510
vt 0.4990 0.5976
vt 0.4524 0.5510
vt 0.5010 0.5990
vt 0.5010 0.5524
vt 0.5476 0.5990
vt 0.5024 0.5510
vt 0.5490 0.5510
vt 0.5490 0.5976
vt 0.5976 0.5990
vt 0.5510 0.5990
vt 0.5510 0.5524
vt 0.5990 0.5510
vt 0.5990 0.5976
vt 0.5524 0.5510
vt 0.6010 0.5990
vt 0.6010 0.5524
vt 0.6476 0.5990
vt 0.6490 0.5510
vt 0.6490 0.5976
vt 0.6024 0.5510
vt 0.6976 0.5990
vt 0.6510 0.5990
vt 0.6510 0.5524
vt 0.6990 0.5510
vt 0.6990 0.5976
vt 0.6524 0.5510
vt 0.7010 0.5990
vt 0.7010 0.5524
vt 0.7476 0.5990
vt 0.7490 0.5510
vt 0.7490 0.5976
vt 0.7024 0.5510
vt 0.7510 0.5990
vt 0.7510 0.5524
vt 0.7976 0.5990
vt 0.7524 0.5510
vt 0.7990 0.5510
vt 0.7990 0.5976
vt 0.8010 0.5990
vt 0.8010 0.5524
vt 0.8476 0.5990
vt 0.8490 0.5510
vt 0.8490 0.5976
vt 0.8024 0.5510
vt 0.8976 0.5990
vt 0.8510 0.5990
vt 0.8510 0.5524
vt 0.8524 0.5510
vt 0.8990 0.5510
vt 0.8990 0.5976
vt 0.9010 0.5990
vt 0.9010 0.5524
vt 0.9476 0.5990
vt 0.9490 0.5510
vt 0.9490 0.5976
vt 0.9024 0.5510
vt 0.9510 0.5524
vt 0.9976 0.5990
vt 0.9510 0.5990
vt 0.9990 0.5510
vt 0.9990 0.5976
vt 0.9524 0.5510
vt 0.0476 0.5490
vt 0.0010 0.5490
vt 0.0010 0.5024
vt 0.0490 0.5010
vt 0.0490 0.5476
vt 0.0024 0.5010
vt 0.0510 0.5024
vt 0.0976 0.5490
vt 0.0510 0.5490
vt 0.0524 0.5010
vt 0.0990 0.5010
vt 0.0990 0.5476
vt 0.1476 0.5490
vt 0.1010 0.5490
vt 0.1010 0.5024
vt 0.1490 0.5010
vt 0.1490 0.5476
vt 0.1024 0.5010
vt 0.1510 0.5024
vt 0.1976 0.5490
vt 0.1510 0.5490
vt 0.1524 0.5010
vt 0.1990 0.5010
vt 0.1990 0.5476
vt 0.2010 0.5024
vt 0.2476 0.5490
vt 0.2010 0.5490
vt 0.2490 0.5010
vt 0.2490 0.5476
vt 0.2024 0.5010
vt 0.2510 0.5490
vt 0.2510 0.5024
vt 0.2976 0.5490
vt 0.2524 0.5010
vt 0.2990 0.5010
vt 0.2990 0.5476
vt 0.3010 0.5024
vt 0.3476 0.5490
vt 0.3010 0.5490
vt 0.3490 0.5010
vt 0.3490 0.5476
vt 0.3024 0.5010
vt 0.3976 0.5490
vt 0.3510 0.5490
vt 0.3510 0.5024
vt 0.3990 0.5010
vt 0.3990 0.5476
vt 0.3524 0.5010
vt 0.4476 0.5490
vt 0.4010 0.5490
vt 0.4010 0.5024
vt 0.4490 0.5010
vt 0.4490 0.5476
vt 0.4024 0.5010
vt 0.4510 0.5490
vt 0.4510 0.5024
vt 0.4976 0.5490
vt 0.4990 0.5010
vt 0.4990 0.5476
vt 0.4524 0.5010
vt 0.5476 0.5490
vt 0.5010 0.5490
vt 0.5010 0.5024
vt 0.5490 0.5476
vt 0.5024 0.5010
vt 0.5490 0.5010
vt 0.5510 0.5024
vt 0.5976 0.5490
vt 0.5510 0.5490
vt 0.5990 0.5476
vt 0.5524 0.5010
vt 0.5990 0.5010
vt 0.6010 0.5024
vt 0.6476 0.5490
vt 0.6010 0.5490
vt 0.6024 0.5010
vt 0.6490 0.5010
vt 0.6490 0.5476
vt 0.6976 0.5490
vt 0.6510 0.5490
vt 0.6510 0.5024
vt 0.6990 0.5476
vt 0.6524 0.5010
vt 0.6990 0.5010
vt 0.7010 0.5024
vt 0.7476 0.5490
vt 0.7010 0.5490
vt 0.7490 0.5476
vt 0.7024 0.5010
vt 0.7490 0.5010
vt 0.7510 0.5024
vt 0.7976 0.5490
vt 0.7510 0.5490
vt 0.7990 0.5476
vt 0.7524 0.5010
vt 0.7990 0.5010
vt 0.8010 0.5490
vt 0.8010 0.5024
vt 0.8476 0.5490
vt 0.8024 0.5010
vt 0.8490 0.5010
vt 0.8490 0.5476
vt 0.8510 0.5490
vt 0.8510 0.5024
vt 0.8976 0.5490
vt 0.8990 0.5476
vt 0.8524 0.5010
vt 0.8990 0.5010
vt 0.9010 0.5490
vt 0.9010 0.5024
vt 0.9476 0.5490
vt 0.9490 0.5476
vt 0.9024 0.5010
vt 0.9490 0.5010
vt 0.9510 0.5024
vt 0.9976 0.5490
vt 0.9510 0.5490
vt 0.9524 0.5010
vt 0.9990 0.5010
vt 0.9990 0.5476
vt 0.0476 0.4990
vt 0.0010 0.4990
vt 0.0010 0.4524
vt 0.0490 0.4510
vt 0.0490 0.4976
vt 0.0024 0.4510
vt 0.0510 0.4990
vt 0.0510 0.4524
vt 0.0976 0.4990
vt 0.0990 0.4510
vt 0.0990 0.4976
vt 0.0524 0.4510
vt 0.1010 0.4990
vt 0.1010 0.4524
vt 0.1476 0.4990
vt 0.1490 0.4510
vt 0.1490 0.4976
vt 0.1024 0.4510
vt 0.1510 0.4990
vt 0.1510 0.4524
vt 0.1976 0.4990
vt 0.1990 0.4510
vt 0.1990 0.4976
vt 0.1524 0.4510
vt 0.2010 0.4990
vt 0.2010 0.4524
vt 0.2476 0.4990
vt 0.2490 0.4510
vt 0.2490 0.4976
vt 0.2024 0.4510
vt 0.2510 0.4524
vt 0.2976 0.4990
vt 0.2510 0.4990
vt 0.2524 0.4510
vt 0.2990 0.4510
vt 0.2990 0.4976
vt 0.3010 0.4990
vt 0.3010 0.4524
vt 0.3476 0.4990
vt 0.3490 0.4510
vt 0.3490 0.4976
vt 0.3024 0.4510
vt 0.3510 0.4990
vt 0.3510 0.4524
vt 0.3976 0.4990
vt 0.3990 0.4510
vt 0.3990 0.4976
vt 0.3524 0.4510
vt 0.4476 0.4990
vt 0.4010 0.4990
vt 0.4010 0.4524
vt 0.4024 0.4510
vt 0.4490 0.4510
vt 0.4490 0.4976
vt 0.4510 0.4990
vt 0.4510 0.4524
vt 0.4976 0.4990
vt 0.4990 0.4510
vt 0.4990 0.4976
vt 0.4524 0.4510
vt 0.5010 0.4990
vt 0.5010 0.4524
vt 0.5476 0.4990
vt 0.5024 0.4510
vt 0.5490 0.4510
vt 0.5490 0.4976
vt 0.5510 0.4990
vt 0.5510 0.4524
vt 0.5976 0.4990
vt 0.5990 0.4510
vt 0.5990 0.4976
vt 0.5524 0.4510
vt 0.6010 0.4990
vt 0.6010 0.4524
vt 0.6476 0.4990
vt 0.6490 0.4510
vt 0.6490 0.4976
vt 0.6024 0.4510
vt 0.6510 0.4990
vt 0.6510 0.4524
vt 0.6976 0.4990
vt 0.6524 0.4510
vt 0.6990 0.4510
vt 0.6990 0.4976
vt 0.7476 0.4990
vt 0.7010 0.4990
vt 0.7010 0.4524
vt 0.7490 0.4510
vt 0.7490 0.4976
vt 0.7024 0.4510
vt 0.7510 0.4990
vt 0.7510 0.4524
vt 0.7976 0.4990
vt 0.7990 0.4510
vt 0.7990 0.4976
vt 0.7524 0.4510
vt 0.8010 0.4990
vt 0.8010 0.4524
vt 0.8476 0.4990
vt 0.8490 0.4510
vt 0.8490 0.4976
vt 0.8024 0.4510
vt 0.8510 0.4990
vt 0.8510 0.4524
vt 0.8976 0.4990
vt 0.8990 0.4976
vt 0.8524 0.4510
vt 0.8990 0.4510
vt 0.9476 0.4990
vt 0.9010 0.4990
vt 0.9010 0.4524
vt 0.9490 0.4510
vt 0.9490 0.4976
vt 0.9024 0.4510
vt 0.9510 0.4990
vt 0.9510 0.4524
vt 0.9976 0.4990
vt 0.9990 0.4510
vt 0.9990 0.4976
vt 0.9524 0.4510
vt 0.0010 0.4490
vt 0.0010 0.4024
vt 0.0476 0.4490
vt 0.0024 0.4010
vt 0.0490 0.4010
vt 0.0490 0.4476
vt 0.0976 0.4490
vt 0.0510 0.4490
vt 0.0510 0.4024
vt 0.0990 0.4010
vt 0.0990 0.4476
vt 0.0524 0.4010
vt 0.1010 0.4490
vt 0.1010 0.4024
vt 0.1476 0.4490
vt 0.1490 0.4010
vt 0.1490 0.4476
vt 0.1024 0.4010
vt 0.1976 0.4490
vt 0.1510 0.4490
vt 0.1510 0.4024
vt 0.1990 0.4010
vt 0.1990 0.4476
vt 0.1524 0.4010
vt 0.2010 0.4490
vt 0.2010 0.4024
vt 0.2476 0.4490
vt 0.2490 0.4010
vt 0.2490 0.4476
vt 0.2024 0.4010
vt 0.2510 0.4490
vt 0.2510 0.4024
vt 0.2976 0.4490
vt 0.2524 0.4010
vt 0.2990 0.4010
vt 0.2990 0.4476
vt 0.3476 0.4490
vt 0.3010 0.4490
vt 0.3010 0.4024
vt 0.3490 0.4010
vt 0.3490 0.4476
vt 0.3024 0.4010
vt 0.3976 0.4490
vt 0.3510 0.4490
vt 0.3510 0.4024
vt 0.3524 0.4010
vt 0.3990 0.4010
vt 0.3990 0.4476
vt 0.4010 0.4490
vt 0.4010 0.4024
vt 0.4476 0.4490
vt 0.4490 0.4010
vt 0.4490 0.4476
vt 0.4024 0.4010
vt 0.4510 0.4024
vt 0.4976 0.4490
vt 0.4510 0.4490
vt 0.4990 0.4010
vt 0.4990 0.4476
vt 0.4524 0.4010
vt 0.5476 0.4490
vt 0.5010 0.4490
vt 0.5010 0.4024
vt 0.5490 0.4010
vt 0.5490 0.4476
vt 0.5024 0.4010
vt 0.5510 0.4024
vt 0.5976 0.4490
vt 0.5510 0.4490
vt 0.5524 0.4010
vt 0.5990 0.4010
vt 0.5990 0.4476
vt 0.6010 0.4490
vt 0.6010 0.4024
vt 0.6476 0.4490
vt 0.6490 0.4010
vt 0.6490 0.4476
vt 0.6024 0.4010
vt 0.6510 0.4490
vt 0.6510 0.4024
vt 0.6976 0.4490
vt 0.6524 0.4010
vt 0.6990 0.4010
vt 0.6990 0.4476
vt 0.7010 0.4024
vt 0.7476 0.4490
vt 0.7010 0.4490
vt 0.7490 0.4010
vt 0.7490 0.4476
vt 0.7024 0.4010
vt 0.7510 0.4490
vt 0.7510 0.4024
vt 0.7976 0.4490
vt 0.7524 0.4010
vt 0.7990 0.4010
vt 0.7990 0.4476
vt 0.8010 0.4024
vt 0.8476 0.4490
vt 0.8010 0.4490
vt 0.8490 0.4476
vt 0.8024 0.4010
vt 0.8490 0.4010
vt 0.8976 0.4490
vt 0.8510 0.4490
vt 0.8510 0.4024
vt 0.8990 0.4010
vt 0.8990 0.4476
vt 0.8524 0.4010
vt 0.9476 0.4490
vt 0.9010 0.4490
vt 0.9010 0.4024
vt 0.9490 0.4476
vt 0.9024 0.4010
vt 0.9490 0.4010
vt 0.9510 0.4490
vt 0.9510 0.4024
vt 0.9976 0.4490
vt 0.9990 0.4010
vt 0.9990 0.4476
vt 0.9524 0.4010
vt 0.0476 0.3990
vt 0.0010 0.3990
vt 0.0010 0.3524
vt 0.0490 0.3976
vt 0.0024 0.3510
vt 0.0490 0.3510
vt 0.0510 0.3524
vt 0.0976 0.3990
vt 0.0510 0.3990
vt 0.0990 0.3510
vt 0.0990 0.3976
vt 0.0524 0.3510
vt 0.1010 0.3524
vt 0.1476 0.3990
vt 0.1010 0.3990
vt 0.1024 0.3510
vt 0.1490 0.3510
vt 0.1490 0.3976
vt 0.1976 0.3990
vt 0.1510 0.3990
vt 0.1510 0.3524
vt 0.1990 0.3976
vt 0.1524 0.3510
vt 0.1990 0.3510
vt 0.2010 0.3524
vt 0.2476 0.3990
vt 0.2010 0.3990
vt 0.2490 0.3976
vt 0.2024 0.3510
vt 0.2490 0.3510
vt 0.2510 0.3524
vt 0.2976 0.3990
vt 0.2510 0.3990
vt 0.2990 0.3976
vt 0.2524 0.3510
vt 0.2990 0.3510
vt 0.3010 0.3524
vt 0.3476 0.3990
vt 0.3010 0.3990
vt 0.3490 0.3510
vt 0.3490 0.3976
vt 0.3024 0.3510
vt 0.3510 0.3990
vt 0.3510 0.3524
vt 0.3976 0.3990
vt 0.3990 0.3976
vt 0.3524 0.3510
vt 0.3990 0.3510
vt 0.4010 0.3990
vt 0.4010 0.3524
vt 0.4476 0.3990
vt 0.4490 0.3976
vt 0.4024 0.3510
vt 0.4490 0.3510
vt 0.4510 0.3524
vt 0.4976 0.3990
vt 0.4510 0.3990
vt 0.4990 0.3510
vt 0.4990 0.3976
vt 0.4524 0.3510
vt 0.5476 0.3990
vt 0.5010 0.3990
vt 0.5010 0.3524
vt 0.5490 0.3510
vt 0.5490 0.3976
vt 0.5024 0.3510
vt 0.5510 0.3990
vt 0.5510 0.3524
vt 0.5976 0.3990
vt 0.5990 0.3510
vt 0.5990 0.3976
vt 0.5524 0.3510
vt 0.6010 0.3990
vt 0.6010 0.3524
vt 0.6476 0.3990
vt 0.6490 0.3510
vt 0.6490 0.3976
vt 0.6024 0.3510
vt 0.6510 0.3990
vt 0.6510 0.3524
vt 0.6976 0.3990
vt 0.6990 0.3510
vt 0.6990 0.3976
vt 0.6524 0.3510
vt 0.7010 0.3990
vt 0.7010 0.3524
vt 0.7476 0.3990
vt 0.7490 0.3510
vt 0.7490 0.3976
vt 0.7024 0.3510
vt 0.7510 0.3524
vt 0.7976 0.3990
vt 0.7510 0.3990
vt 0.7524 0.3510
vt 0.7990 0.3510
vt 0.7990 0.3976
vt 0.8010 0.3990
vt 0.8010 0.3524
vt 0.8476 0.3990
vt 0.8490 0.3510
vt 0.8490 0.3976
vt 0.8024 0.3510
vt 0.8510 0.3990
vt 0.8510 0.3524
vt 0.8976 0.3990
vt 0.8990 0.3510
vt 0.8990 0.3976
vt 0.8524 0.3510
vt 0.9476 0.3990
vt 0.9010 0.3990
vt 0.9010 0.3524
vt 0.9024 0.3510
vt 0.9490 0.3510
vt 0.9490 0.3976
vt 0.9510 0.3990
vt 0.9510 0.3524
vt 0.9976 0.3990
vt 0.9990 0.3510
vt 0.9990 0.3976
vt 0.9524 0.3510
vt 0.0010 0.3490
vt 0.0010 0.3024
vt 0.0476 0.3490
vt 0.0024 0.3010
vt 0.0490 0.3010
vt 0.0490 0.3476
vt 0.0510 0.3490
vt 0.0510 0.3024
vt 0.0976 0.3490
vt 0.0990 0.3010
vt 0.0990 0.3476
vt 0.0524 0.3010
vt 0.1010 0.3490
vt 0.1010 0.3024
vt 0.1476 0.3490
vt 0.1490 0.3010
vt 0.1490 0.3476
vt 0.1024 0.3010
vt 0.1510 0.3490
vt 0.1510 0.3024
vt 0.1976 0.3490
vt 0.1524 0.3010
vt 0.1990 0.3010
vt 0.1990 0.3476
vt 0.2476 0.3490
vt 0.2010 0.3490
vt 0.2010 0.3024
vt 0.2490 0.3010
vt 0.2490 0.3476
vt 0.2024 0.3010
vt 0.2510 0.3490
vt 0.2510 0.3024
vt 0.2976 0.3490
vt 0.2990 0.3010
vt 0.2990 0.3476
vt 0.2524 0.3010
vt 0.3010 0.3490
vt 0.3010 0.3024
vt 0.3476 0.3490
vt 0.3490 0.3010
vt 0.3490 0.3476
vt 0.3024 0.3010
vt 0.3510 0.3490
vt 0.3510 0.3024
vt 0.3976 0.3490
vt 0.3990 0.3476
vt 0.3524 0.3010
vt 0.3990 0.3010
vt 0.4476 0.3490
vt 0.4010 0.3490
vt 0.4010 0.3024
vt 0.4490 0.3010
vt 0.4490 0.3476
vt 0.4024 0.3010
vt 0.4510 0.3490
vt 0.4510 0.3024
vt 0.4976 0.3490
vt 0.4990 0.3010
vt 0.4990 0.3476
vt 0.4524 0.3010
vt 0.5010 0.3490
vt 0.5010 0.3024
vt 0.5476 0.3490
vt 0.5024 0.3010
vt 0.5490 0.3010
vt 0.5490 0.3476
vt 0.5976 0.3490
vt 0.5510 0.3490
vt 0.5510 0.3024
vt 0.5990 0.3010
vt 0.5990 0.3476
vt 0.5524 0.3010
vt 0.6010 0.3490
vt 0.6010 0.3024
vt 0.6476 0.3490
vt 0.6490 0.3010
vt 0.6490 0.3476
vt 0.6024 0.3010
vt 0.6976 0.3490
vt 0.6510 0.3490
vt 0.6510 0.3024
vt 0.6990 0.3010
vt 0.6990 0.3476
vt 0.6524 0.3010
vt 0.7010 0.3490
vt 0.7010 0.3024
vt 0.7476 0.3490
vt 0.7490 0.3010
vt 0.7490 0.3476
vt 0.7024 0.3010
vt 0.7510 0.3490
vt 0.7510 0.3024
vt 0.7976 0.3490
vt 0.7524 0.3010
vt 0.7990 0.3010
vt 0.7990 0.3476
vt 0.8010 0.3490
vt 0.8010 0.3024
vt 0.8476 0.3490
vt 0.8490 0.3010
vt 0.8490 0.3476
vt 0.8024 0.3010
vt 0.8976 0.3490
vt 0.8510 0.3490
vt 0.8510 0.3024
vt 0.8524 0.3010
vt 0.8990 0.3010
vt 0.8990 0.3476
vt 0.9010 0.3490
vt 0.9010 0.3024
vt 0.9476 0.3490
vt 0.9490 0.3010
vt 0.9490 0.3476
vt 0.9024 0.3010
vt 0.9510 0.3024
vt 0.9976 0.3490
vt 0.9510 0.3490
vt 0.9990 0.3010
vt 0.9990 0.3476
vt 0.9524 0.3010
vt 0.0476 0.2990
vt 0.0010 0.2990
vt 0.0010 0.2524
vt 0.0490 0.2510
vt 0.0490 0.2976
vt 0.0024 0.2510
vt 0.0510 0.2524
vt 0.0976 0.2990
vt 0.0510 0.2990
vt 0.0524 0.2510
vt 0.0990 0.2510
vt 0.0990 0.2976
vt 0.1476 0.2990
vt 0.1010 0.2990
vt 0.1010 0.2524
vt 0.1490 0.2510
vt 0.1490 0.2976
vt 0.1024 0.2510
vt 0.1510 0.2524
vt 0.1976 0.2990
vt 0.1510 0.2990
vt 0.1524 0.2510
vt 0.1990 0.2510
vt 0.1990 0.2976
vt 0.2010 0.2524
vt 0.2476 0.2990
vt 0.2010 0.2990
vt 0.2490 0.2510
vt 0.2490 0.2976
vt 0.2024 0.2510
vt 0.2510 0.2990
vt 0.2510 0.2524
vt 0.2976 0.2990
vt 0.2524 0.2510
vt 0.2990 0.2510
vt 0.2990 0.2976
vt 0.3010 0.2524
vt 0.3476 0.2990
vt 0.3010 0.2990
vt 0.3490 0.2510
vt 0.3490 0.2976
vt 0.3024 0.2510
vt 0.3976 0.2990
vt 0.3510 0.2990
vt 0.3510 0.2524
vt 0.3990 0.2510
vt 0.3990 0.2976
vt 0.3524 0.2510
vt 0.4476 0.2990
vt 0.4010 0.2990
vt 0.4010 0.2524
vt 0.4490 0.2510
vt 0.4490 0.2976
vt 0.4024 0.2510
vt 0.4510 0.2990
vt 0.4510 0.2524
vt 0.4976 0.2990
vt 0.4990 0.2510
vt 0.4990 0.2976
vt 0.4524 0.2510
vt 0.5476 0.2990
vt 0.5010 0.2990
vt 0.5010 0.2524
vt 0.5490 0.2976
vt 0.5024 0.2510
vt 0.5490 0.2510
vt 0.5510 0.2524
vt 0.5976 0.2990
vt 0.5510 0.2990
vt 0.5990 0.2976
vt 0.5524 0.2510
vt 0.5990 0.2510
vt 0.6010 0.2524
vt 0.6476 0.2990
vt 0.6010 0.2990
vt 0.6024 0.2510
vt 0.6490 0.2510
vt 0.6490 0.2976
vt 0.6976 0.2990
vt 0.6510 0.2990
vt 0.6510 0.2524
vt 0.6990 0.2976
vt 0.6524 0.2510
vt 0.6990 0.2510
vt 0.7010 0.2524
vt 0.7476 0.2990
vt 0.7010 0.2990
vt 0.7490 0.2976
vt 0.7024 0.2510
vt 0.7490 0.2510
vt 0.7510 0.2524
vt 0.7976 0.2990
vt 0.7510 0.2990
vt 0.7990 0.2976
vt 0.7524 0.2510
vt 0.7990 0.2510
vt 0.8010 0.2990
vt 0.8010 0.2524
vt 0.8476 0.2990
vt 0.8024 0.2510
vt 0.8490 0.2510
vt 0.8490 0.2976
vt 0.8510 0.2990
vt 0.8510 0.2524
vt 0.8976 0.2990
vt 0.8990 0.2976
vt 0.8524 0.2510
vt 0.8990 0.2510
vt 0.9010 0.2990
vt 0.9010 0.2524
vt 0.9476 0.2990
vt 0.9490 0.2976
vt 0.9024 0.2510
vt 0.9490 0.2510
vt 0.9510 0.2524
vt 0.9976 0.2990
vt 0.9510 0.2990
vt 0.9524 0.2510
vt 0.9990 0.2510
vt 0.9990 0.2976
vt 0.0476 0.2490
vt 0.0010 0.2490
vt 0.0010 0.2024
vt 0.0490 0.2010
vt 0.0490 0.2476
vt 0.0024 0.2010
vt 0.0510 0.2490
vt 0.0510 0.2024
vt 0.0976 0.2490
vt 0.0990 0.2010
vt 0.0990 0.2476
vt 0.0524 0.2010
vt 0.1010 0.2490
vt 0.1010 0.2024
vt 0.1476 0.2490
vt 0.1490 0.2010
vt 0.1490 0.2476
vt 0.1024 0.2010
vt 0.1510 0.2490
vt 0.1510 0.2024
vt 0.1976 0.2490
vt 0.1990 0.2010
vt 0.1990 0.2476
vt 0.1524 0.2010
vt 0.2010 0.2490
vt 0.2010 0.2024
vt 0.2476 0.2490
vt 0.2490 0.2010
vt 0.2490 0.2476
vt 0.2024 0.2010
vt 0.2510 0.2024
vt 0.2976 0.2490
vt 0.2510 0.2490
vt 0.2524 0.2010
vt 0.2990 0.2010
vt 0.2990 0.2476
vt 0.3010 0.2490
vt 0.3010 0.2024
vt 0.3476 0.2490
vt 0.3490 0.2010
vt 0.3490 0.2476
vt 0.3024 0.2010
vt 0.3510 0.2490
vt 0.3510 0.2024
vt 0.3976 0.2490
vt 0.3990 0.2010
vt 0.3990 0.2476
vt 0.3524 0.2010
vt 0.4476 0.2490
vt 0.4010 0.2490
vt 0.4010 0.2024
vt 0.4024 0.2010
vt 0.4490 0.2010
vt 0.4490 0.2476
vt 0.4510 0.2490
vt 0.4510 0.2024
vt 0.4976 0.2490
vt 0.4990 0.2010
vt 0.4990 0.2476
vt 0.4524 0.2010
vt 0.5010 0.2490
vt 0.5010 0.2024
vt 0.5476 0.2490
vt 0.5024 0.2010
vt 0.5490 0.2010
vt 0.5490 0.2476
vt 0.5510 0.2490
vt 0.5510 0.2024
vt 0.5976 0.2490
vt 0.5990 0.2010
vt 0.5990 0.2476
vt 0.5524 0.2010
vt 0.6010 0.2490
vt 0.6010 0.2024
vt 0.6476 0.2490
vt 0.6490 0.2010
vt 0.6490 0.2476
vt 0.6024 0.2010
vt 0.6510 0.2490
vt 0.6510 0.2024
vt 0.6976 0.2490
vt 0.6524 0.2010
vt 0.6990 0.2010
vt 0.6990 0.2476
vt 0.7476 0.2490
vt 0.7010 0.2490
vt 0.7010 0.2024
vt 0.7490 0.2010
vt 0.7490 0.2476
vt 0.7024 0.2010
vt 0.7510 0.2490
vt 0.7510 0.2024
vt 0.7976 0.2490
vt 0.7990 0.2010
vt 0.7990 0.2476
vt 0.7524 0.2010
vt 0.8010 0.2490
vt 0.8010 0.2024
vt 0.8476 0.2490
vt 0.8490 0.2010
vt 0.8490 0.2476
vt 0.8024 0.2010
vt 0.8510 0.2490
vt 0.8510 0.2024
vt 0.8976 0.2490
vt 0.8990 0.2476
vt 0.8524 0.2010
vt 0.8990 0.2010
vt 0.9476 0.2490
vt 0.9010 0.2490
vt 0.9010 0.2024
vt 0.9490 0.2010
vt 0.9490 0.2476
vt 0.9024 0.2010
vt 0.9510 0.2490
vt 0.9510 0.2024
vt 0.9976 0.2490
vt 0.9990 0.2010
vt 0.9990 0.2476
vt 0.9524 0.2010
vt 0.0010 0.1990
vt 0.0010 0.1524
vt 0.0476 0.1990
vt 0.0024 0.1510
vt 0.0490 0.1510
vt 0.0490 0.1976
vt 0.0976 0.1990
vt 0.0510 0.1990
vt 0.0510 0.1524
vt 0.0990 0.1510
vt 0.0990 0.1976
vt 0.0524 0.1510
vt 0.1010 0.1990
vt 0.1010 0.1524
vt 0.1476 0.1990
vt 0.1490 0.1510
vt 0.1490 0.1976
vt 0.1024 0.1510
vt 0.1976 0.1990
vt 0.1510 0.1990
vt 0.1510 0.1524
vt 0.1990 0.1510
vt 0.1990 0.1976
vt 0.1524 0.1510
vt 0.2010 0.1990
vt 0.2010 0.1524
vt 0.2476 0.1990
vt 0.2490 0.1510
vt 0.2490 0.1976
vt 0.2024 0.1510
vt 0.2510 0.1990
vt 0.2510 0.1524
vt 0.2976 0.1990
vt 0.2524 0.1510
vt 0.2990 0.1510
vt 0.2990 0.1976
vt 0.3010 0.1990
vt 0.3010 0.1524
vt 0.3476 0.1990
vt 0.3490 0.1510
vt 0.3490 0.1976
vt 0.3024 0.1510
vt 0.3976 0.1990
vt 0.3510 0.1990
vt 0.3510 0.1524
vt 0.3524 0.1510
vt 0.3990 0.1510
vt 0.3990 0.1976
vt 0.4010 0.1990
vt 0.4010 0.1524
vt 0.4476 0.1990
vt 0.4490 0.1510
vt 0.4490 0.1976
vt 0.4024 0.1510
vt 0.4510 0.1524
vt 0.4976 0.1990
vt 0.4510 0.1990
vt 0.4990 0.1510
vt 0.4990 0.1976
vt 0.4524 0.1510
vt 0.5476 0.1990
vt 0.5010 0.1990
vt 0.5010 0.1524
vt 0.5490 0.1510
vt 0.5490 0.1976
vt 0.5024 0.1510
vt 0.5510 0.1524
vt 0.5976 0.1990
vt 0.5510 0.1990
vt 0.5524 0.1510
vt 0.5990 0.1510
vt 0.5990 0.1976
vt 0.6476 0.1990
vt 0.6010 0.1990
vt 0.6010 0.1524
vt 0.6490 0.1510
vt 0.6490 0.1976
vt 0.6024 0.1510
vt 0.6510 0.1524
vt 0.6976 0.1990
vt 0.6510 0.1990
vt 0.6524 0.1510
vt 0.6990 0.1510
vt 0.6990 0.1976
vt 0.7010 0.1524
vt 0.7476 0.1990
vt 0.7010 0.1990
vt 0.7490 0.1510
vt 0.7490 0.1976
vt 0.7024 0.1510
vt 0.7510 0.1990
vt 0.7510 0.1524
vt 0.7976 0.1990
vt 0.7524 0.1510
vt 0.7990 0.1510
vt 0.7990 0.1976
vt 0.8010 0.1524
vt 0.8476 0.1990
vt 0.8010 0.1990
vt 0.8490 0.1510
vt 0.8490 0.1976
vt 0.8024 0.1510
vt 0.8976 0.1990
vt 0.8510 0.1990
vt 0.8510 0.1524
vt 0.8990 0.1510
vt 0.8990 0.1976
vt 0.8524 0.1510
vt 0.9476 0.1990
vt 0.9010 0.1990
vt 0.9010 0.1524
vt 0.9490 0.1510
vt 0.9490 0.1976
vt 0.9024 0.1510
vt 0.9510 0.1990
vt 0.9510 0.1524
vt 0.9976 0.1990
vt 0.9990 0.1510
vt 0.9990 0.1976
vt 0.9524 0.1510
vt 0.0476 0.1490
vt 0.0010 0.1490
vt 0.0010 0.1024
vt 0.0490 0.1476
vt 0.0024 0.1010
vt 0.0490 0.1010
vt 0.0510 0.1024
vt 0.0976 0.1490
vt 0.0510 0.1490
vt 0.0990 0.1476
vt 0.0524 0.1010
vt 0.0990 0.1010
vt 0.1010 0.1024
vt 0.1476 0.1490
vt 0.1010 0.1490
vt 0.1024 0.1010
vt 0.1490 0.1010
vt 0.1490 0.1476
vt 0.1976 0.1490
vt 0.1510 0.1490
vt 0.1510 0.1024
vt 0.1990 0.1476
vt 0.1524 0.1010
vt 0.1990 0.1010
vt 0.2010 0.1024
vt 0.2476 0.1490
vt 0.2010 0.1490
vt 0.2490 0.1476
vt 0.2024 0.1010
vt 0.2490 0.1010
vt 0.2510 0.1024
vt 0.2976 0.1490
vt 0.2510 0.1490
vt 0.2990 0.1476
vt 0.2524 0.1010
vt 0.2990 0.1010
vt 0.3010 0.1490
vt 0.3010 0.1024
vt 0.3476 0.1490
vt 0.3024 0.1010
vt 0.3490 0.1010
vt 0.3490 0.1476
vt 0.3510 0.1490
vt 0.3510 0.1024
vt 0.3976 0.1490
vt 0.3990 0.1476
vt 0.3524 0.1010
vt 0.3990 0.1010
vt 0.4010 0.1490
vt 0.4010 0.1024
vt 0.4476 0.1490
vt 0.4490 0.1476
vt 0.4024 0.1010
vt 0.4490 0.1010
vt 0.4510 0.1024
vt 0.4976 0.1490
vt 0.4510 0.1490
vt 0.4524 0.1010
vt 0.4990 0.1010
vt 0.4990 0.1476
vt 0.5476 0.1490
vt 0.5010 0.1490
vt 0.5010 0.1024
vt 0.5490 0.1010
vt 0.5490 0.1476
vt 0.5024 0.1010
vt 0.5510 0.1490
vt 0.5510 0.1024
vt 0.5976 0.1490
vt 0.5990 0.1010
vt 0.5990 0.1476
vt 0.5524 0.1010
vt 0.6010 0.1490
vt 0.6010 0.1024
vt 0.6476 0.1490
vt 0.6490 0.1010
vt 0.6490 0.1476
vt 0.6024 0.1010
vt 0.6510 0.1490
vt 0.6510 0.1024
vt 0.6976 0.1490
vt 0.6990 0.1010
vt 0.6990 0.1476
vt 0.6524 0.1010
vt 0.7010 0.1490
vt 0.7010 0.1024
vt 0.7476 0.1490
vt 0.7490 0.1010
vt 0.7490 0.1476
vt 0.7024 0.1010
vt 0.7510 0.1024
vt 0.7976 0.1490
vt 0.7510 0.1490
vt 0.7524 0.1010
vt 0.7990 0.1010
vt 0.7990 0.1476
vt 0.8010 0.1490
vt 0.8010 0.1024
vt 0.8476 0.1490
vt 0.8490 0.1010
vt 0.8490 0.1476
vt 0.8024 0.1010
vt 0.8510 0.1490
vt 0.8510 0.1024
vt 0.8976 0.1490
vt 0.8990 0.1010
vt 0.8990 0.1476
vt 0.8524 0.1010
vt 0.9476 0.1490
vt 0.9010 0.1490
vt 0.9010 0.1024
vt 0.9024 0.1010
vt 0.9490 0.1010
vt 0.9490 0.1476
vt 0.9510 0.1490
vt 0.9510 0.1024
vt 0.9976 0.1490
vt 0.9990 0.1010
vt 0.9990 0.1476
vt 0.9524 0.1010
vt 0.0010 0.0990
vt 0.0010 0.0524
vt 0.0476 0.0990
vt 0.0024 0.0510
vt 0.0490 0.0510
vt 0.0490 0.0976
vt 0.0510 0.0990
vt 0.0510 0.0524
vt 0.0976 0.0990
vt 0.0990 0.0510
vt 0.0990 0.0976
vt 0.0524 0.0510
vt 0.1010 0.0990
vt 0.1010 0.0524
vt 0.1476 0.0990
vt 0.1490 0.0510
vt 0.1490 0.0976
vt 0.1024 0.0510
vt 0.1510 0.0990
vt 0.1510 0.0524
vt 0.1976 0.0990
vt 0.1524 0.0510
vt 0.1990 0.0510
vt 0.1990 0.0976
vt 0.2476 0.0990
vt 0.2010 0.0990
vt 0.2010 0.0524
vt 0.2490 0.0510
vt 0.2490 0.0976
vt 0.2024 0.0510
vt 0.2510 0.0990
vt 0.2510 0.0524
vt 0.2976 0.0990
vt 0.2990 0.0510
vt 0.2990 0.0976
vt 0.2524 0.0510
vt 0.3010 0.0990
vt 0.3010 0.0524
vt 0.3476 0.0990
vt 0.3490 0.0510
vt 0.3490 0.0976
vt 0.3024 0.0510
vt 0.3510 0.0990
vt 0.3510 0.0524
vt 0.3976 0.0990
vt 0.3990 0.0976
vt 0.3524 0.0510
vt 0.3990 0.0510
vt 0.4476 0.0990
vt 0.4010 0.0990
vt 0.4010 0.0524
vt 0.4490 0.0510
vt 0.4490 0.0976
vt 0.4024 0.0510
vt 0.4510 0.0990
vt 0.4510 0.0524
vt 0.4976 0.0990
vt 0.4990 0.0510
vt 0.4990 0.0976
vt 0.4524 0.0510
vt 0.5010 0.0990
vt 0.5010 0.0524
vt 0.5476 0.0990
vt 0.5024 0.0510
vt 0.5490 0.0510
vt 0.5490 0.0976
vt 0.5976 0.0990
vt 0.5510 0.0990
vt 0.5510 0.0524
vt 0.5990 0.0510
vt 0.5990 0.0976
vt 0.5524 0.0510
vt 0.6010 0.0990
vt 0.6010 0.0524
vt 0.6476 0.0990
vt 0.6490 0.0510
vt 0.6490 0.0976
vt 0.6024 0.0510
vt 0.6976 0.0990
vt 0.6510 0.0990
vt 0.6510 0.0524
vt 0.6990 0.0510
vt 0.6990 0.0976
vt 0.6524 0.0510
vt 0.7010 0.0990
vt 0.7010 0.0524
vt 0.7476 0.0990
vt 0.7490 0.0510
vt 0.7490 0.0976
vt 0.7024 0.0510
vt 0.7510 0.0990
vt 0.7510 0.0524
vt 0.7976 0.0990
vt 0.7524 0.0510
vt 0.7990 0.0510
vt 0.7990 0.0976
vt 0.8476 0.0990
vt 0.8010 0.0990
vt 0.8010 0.0524
vt 0.8490 0.0510
vt 0.8490 0.0976
vt 0.8024 0.0510
vt 0.8976 0.0990
vt 0.8510 0.0990
vt 0.8510 0.0524
vt 0.8524 0.0510
vt 0.8990 0.0510
vt 0.8990 0.0976
vt 0.9010 0.0524
vt 0.9476 0.0990
vt 0.9010 0.0990
vt 0.9490 0.0510
vt 0.9490 0.0976
vt 0.9024 0.0510
vt 0.9510 0.0524
vt 0.9976 0.0990
vt 0.9510 0.0990
vt 0.9990 0.0510
vt 0.9990 0.0976
vt 0.9524 0.0510
vt 0.0476 0.0490
vt 0.0010 0.0490
vt 0.0010 0.0024
vt 0.0490 0.0010
vt 0.0490 0.0476
vt 0.0024 0.0010
vt 0.0510 0.0024
vt 0.0976 0.0490
vt 0.0510 0.0490
vt 0.0524 0.0010
vt 0.0990 0.0010
vt 0.0990 0.0476
vt 0.1476 0.0490
vt 0.1010 0.0490
vt 0.1010 0.0024
vt 0.1490 0.0010
vt 0.1490 0.0476
vt 0.1024 0.0010
vt 0.1510 0.0490
vt 0.1510 0.0024
vt 0.1976 0.0490
vt 0.1524 0.0010
vt 0.1990 0.0010
vt 0.1990 0.0476
vt 0.2010 0.0024
vt 0.2476 0.0490
vt 0.2010 0.0490
vt 0.2490 0.0010
vt 0.2490 0.0476
vt 0.2024 0.0010
vt 0.2510 0.0490
vt 0.2510 0.0024
vt 0.2976 0.0490
vt 0.2524 0.0010
vt 0.2990 0.0010
vt 0.2990 0.0476
vt 0.3010 0.0024
vt 0.3476 0.0490
vt 0.3010 0.0490
vt 0.3490 0.0010
vt 0.3490 0.0476
vt 0.3024 0.0010
vt 0.3976 0.0490
vt 0.3510 0.0490
vt 0.3510 0.0024
vt 0.3990 0.0010
vt 0.3990 0.0476
vt 0.3524 0.0010
vt 0.4476 0.0490
vt 0.4010 0.0490
vt 0.4010 0.0024
vt 0.4490 0.0476
vt 0.4024 0.0010
vt 0.4490 0.0010
vt 0.4510 0.0490
vt 0.4510 0.0024
vt 0.4976 0.0490
vt 0.4990 0.0010
vt 0.4990 0.0476
vt 0.4524 0.0010
vt 0.5476 0.0490
vt 0.5010 0.0490
vt 0.5010 0.0024
vt 0.5490 0.0476
vt 0.5024 0.0010
vt 0.5490 0.0010
vt 0.5510 0.0024
vt 0.5976 0.0490
vt 0.5510 0.0490
vt 0.5990 0.0010
vt 0.5990 0.0476
vt 0.5524 0.0010
vt 0.6010 0.0024
vt 0.6476 0.0490
vt 0.6010 0.0490
vt 0.6024 0.0010
vt 0.6490 0.0010
vt 0.6490 0.0476
vt 0.6976 0.0490
vt 0.6510 0.0490
vt 0.6510 0.0024
vt 0.6990 0.0476
vt 0.6524 0.0010
vt 0.6990 0.0010
vt 0.7010 0.0024
vt 0.7476 0.0490
vt 0.7010 0.0490
vt 0.7490 0.0476
vt 0.7024 0.0010
vt 0.7490 0.0010
vt 0.7510 0.0024
vt 0.7976 0.0490
vt 0.7510 0.0490
vt 0.7990 0.0476
vt 0.7524 0.0010
vt 0.7990 0.0010
vt 0.8010 0.0024
vt 0.8476 0.0490
vt 0.8010 0.0490
vt 0.8490 0.0010
vt 0.8490 0.0476
vt 0.8024 0.0010
vt 0.8510 0.0490
vt 0.8510 0.0024
vt 0.8976 0.0490
vt 0.8990 0.0476
vt 0.8524 0.0010
vt 0.8990 0.0010
vt 0.9010 0.0490
vt 0.9010 0.0024
vt 0.9476 0.0490
vt 0.9490 0.0476
vt 0.9024 0.0010
vt 0.9490 0.0010
vt 0.9510 0.0024
vt 0.9976 0.0490
vt 0.9510 0.0490
vt 0.9990 0.0010
vt 0.9990 0.0476
vt 0.9524 0.0010
vn -0.0788 -0.9290 0.3616
vn -0.0781 -0.9289 0.3620
vn -0.0780 -0.9290 0.3619
vn 0.0670 0.3553 0.9323
vn 0.0675 0.3574 0.9315
vn -0.4939 -0.7757 0.3929
vn -0.1794 0.1985 0.9635
vn -0.1796 0.1984 0.9635
vn 0.8555 0.3777 0.3543
vn 0.0000 -0.0000 1.0000
vn -0.0001 -0.0000 1.0000
vn 0.7071 0.0000 -0.7071
vn 0.7071 -0.0001 -0.7071
vn 0.8554 0.3777 0.3544
vn 0.5530 0.1998 -0.8089
vn 0.5531 0.1998 -0.8088
vn 0.2912 -0.2565 -0.9216
vn 0.2911 -0.2566 -0.9216
vn 0.2919 -0.0559 -0.9548
vn 0.3011 0.8416 -0.4484
vn -0.0844 -0.4445 -0.8918
vn -0.0844 -0.4446 -0.8917
vn -0.1224 0.0088 -0.9924
vn -0.0261 0.8619 -0.5065
vn -0.3843 -0.4764 -0.7908
vn -0.3840 -0.4769 -0.7906
vn -0.4535 0.6407 -0.6196
vn -0.6152 -0.3300 -0.7159
vn -0.6150 -0.3296 -0.7164
vn -0.8073 0.0775 -0.5850
vn -0.3306 0.9075 0.2589
vn -0.8618 -0.1794 -0.4744
vn -0.8620 -0.1793 -0.4741
vn 0.3336 -0.4915 -0.8045
vn -0.7072 -0.0000 -0.7070
vn -0.7071 0.0000 -0.7071
vn -0.8621 -0.1790 -0.4741
vn 1.0000 -0.0001 -0.0001
vn 1.0000 -0.0001 0.0001
vn 0.3332 -0.4916 -0.8046
vn 0.9453 -0.1786 0.2730
vn 0.9453 -0.1784 0.2731
vn 0.8690 0.2224 0.4419
vn 0.8689 0.2225 0.4421
vn 0.8840 0.0632 0.4632
vn 0.5362 -0.8342 0.1290
vn 0.5836 0.4764 0.6576
vn 0.5836 0.4769 0.6573
vn 0.6090 -0.0292 0.7927
vn 0.2686 -0.8723 0.4085
vn 0.3247 0.4810 0.8144
vn 0.9180 -0.1088 -0.3814
vn 0.9825 -0.1862 -0.0012
vn 0.1988 -0.9287 0.3131
vn 0.2009 -0.9289 0.3112
vn 0.2012 -0.9289 0.3111
vn 0.7070 0.3567 0.6107
vn 0.7064 0.3574 0.6110
vn -0.0719 -0.7756 0.6271
vn 0.5546 0.1987 0.8081
vn 0.5543 0.1984 0.8083
vn 0.8554 0.3777 -0.3544
vn 0.7071 0.0000 0.7071
vn 0.7071 0.0000 0.7072
vn 0.0000 0.0001 -1.0000
vn -0.0000 -0.0001 -1.0000
vn -0.1807 0.1998 -0.9630
vn -0.1808 0.1998 -0.9630
vn -0.4460 -0.2567 -0.8574
vn -0.4459 -0.2566 -0.8575
vn -0.4692 -0.0546 -0.8814
vn -0.1040 0.8415 -0.5302
vn -0.6901 -0.4456 -0.5702
vn -0.6903 -0.4446 -0.5708
vn -0.7881 0.0052 -0.6155
vn -0.3768 0.8618 -0.3396
vn -0.8307 -0.4768 -0.2874
vn -0.8306 -0.4769 -0.2876
vn -0.7587 0.6408 -0.1173
vn -0.9416 -0.3291 -0.0713
vn -0.9414 -0.3296 -0.0716
vn -0.9843 0.0788 0.1577
vn -0.0508 0.9076 0.4167
vn -0.9448 -0.1793 0.2741
vn -0.9448 -0.1791 0.2743
vn -0.3331 -0.4915 -0.8046
vn -1.0000 0.0000 -0.0001
vn -1.0000 -0.0000 0.0000
vn 0.7068 -0.0003 -0.7074
vn 0.7075 0.0004 -0.7068
vn -0.3336 -0.4916 -0.8044
vn 0.7069 0.0000 -0.7073
vn 0.8616 -0.1785 -0.4752
vn 0.8616 -0.1784 -0.4752
vn 0.9270 0.2225 -0.3018
vn 0.9271 0.2225 -0.3017
vn 0.9526 0.0643 -0.2975
vn 0.4706 -0.8341 -0.2879
vn 0.8775 0.4767 0.0521
vn 0.8774 0.4769 0.0522
vn 0.9911 -0.0286 0.1299
vn 0.4793 -0.8721 0.0989
vn 0.8064 0.4793 0.3463
vn 0.3800 -0.1093 -0.9185
vn 0.6940 -0.1852 -0.6957
vn 0.3612 -0.9291 0.0790
vn 0.3620 -0.9289 0.0781
vn 0.3621 -0.9289 0.0777
vn 0.9320 0.3561 -0.0673
vn 0.9315 0.3574 -0.0675
vn 0.3931 -0.7759 0.4933
vn 0.9635 0.1985 0.1795
vn 0.9635 0.1985 0.1796
vn 0.3543 0.3775 -0.8555
vn 1.0000 -0.0000 -0.0000
vn 1.0000 -0.0001 0.0000
vn 0.5278 -0.6652 -0.5280
vn 0.3543 0.3778 -0.8554
vn -0.8088 0.1999 -0.5531
vn -0.6190 0.4977 0.6076
vn -0.9216 -0.2567 -0.2911
vn -0.9216 -0.2566 -0.2911
vn -0.9549 -0.0557 -0.2917
vn -0.4485 0.8415 -0.3013
vn -0.8917 -0.4447 0.0845
vn -0.8917 -0.4446 0.0844
vn -0.9925 0.0056 0.1221
vn -0.5069 0.8616 0.0263
vn -0.7901 -0.4774 0.3845
vn -0.7906 -0.4769 0.3840
vn -0.6195 0.6406 0.4537
vn -0.7165 -0.3297 0.6148
vn 0.8615 -0.1784 -0.4754
vn -0.5851 0.0783 0.8072
vn 0.2591 0.9075 0.3306
vn -0.4744 -0.1793 0.8618
vn 0.7072 -0.0000 -0.7070
vn 0.7073 0.0001 -0.7069
vn -0.7071 -0.0000 0.7071
vn 0.7071 -0.0002 -0.7071
vn 0.0001 0.0000 -1.0000
vn -0.8046 -0.4916 -0.3332
vn 0.2731 -0.1785 -0.9453
vn 0.4421 0.2224 -0.8690
vn 0.4420 0.2226 -0.8690
vn 0.4635 0.0647 -0.8837
vn 0.1291 -0.8338 -0.5367
vn 0.6573 0.4770 -0.5834
vn 0.6572 0.4769 -0.5836
vn 0.7925 -0.0283 -0.6092
vn 0.4087 -0.8722 -0.2688
vn 0.8148 0.4797 -0.3256
vn -0.3814 -0.1100 -0.9178
vn -0.0012 -0.1859 -0.9826
vn 0.3103 -0.9292 -0.2009
vn 0.3111 -0.9289 -0.2008
vn 0.3111 -0.9289 -0.2007
vn 0.6117 0.3568 -0.7061
vn 0.6110 0.3574 -0.7064
vn 0.6274 -0.7755 0.0703
vn 0.8083 0.1985 -0.5543
vn 0.8083 0.1986 -0.5542
vn -0.3545 0.3778 -0.8553
vn 0.7071 0.0002 -0.7071
vn -1.0000 -0.0003 0.0005
vn -0.3548 0.3776 -0.8553
vn -0.9630 0.1999 0.1807
vn -0.9630 0.1998 0.1808
vn -0.8575 -0.2567 0.4458
vn -0.8575 -0.2566 0.4459
vn -0.8814 -0.0566 0.4689
vn -0.5303 0.8414 0.1043
vn -0.5708 -0.4447 0.6903
vn -0.5708 -0.4448 0.6902
vn -0.6155 0.0061 0.7881
vn -0.3398 0.8617 0.3769
vn -0.2875 -0.4767 0.8307
vn -0.2875 -0.4769 0.8306
vn -0.1173 0.6406 0.7589
vn -0.0719 -0.3293 0.9415
vn -0.0716 -0.3296 0.9414
vn 0.1579 0.0794 0.9843
vn 0.4167 0.9077 0.0496
vn 0.2746 -0.1791 0.9447
vn 0.2743 -0.1791 0.9448
vn -0.8044 -0.4917 0.3335
vn 0.0000 -0.0001 1.0000
vn -0.7070 0.0000 -0.7072
vn -0.7075 -0.0003 -0.7067
vn -0.8046 -0.4916 0.3332
vn -0.7071 -0.0001 -0.7071
vn -0.4754 -0.1784 -0.8615
vn -0.4753 -0.1784 -0.8616
vn -0.3017 0.2225 -0.9271
vn -0.3018 0.2226 -0.9270
vn -0.2976 0.0634 -0.9526
vn -0.2880 -0.8341 -0.4704
vn 0.0522 0.4774 -0.8772
vn 0.0522 0.4769 -0.8774
vn 0.1298 -0.0278 -0.9911
vn 0.0990 -0.8721 -0.4791
vn 0.3432 0.4817 -0.8063
vn -0.9185 -0.1090 -0.3801
vn -0.6948 -0.1860 -0.6947
vn 0.0791 -0.9290 -0.3616
vn 0.0781 -0.9288 -0.3622
vn 0.0781 -0.9290 -0.3618
vn -0.0679 0.3585 -0.9311
vn -0.0677 0.3574 -0.9315
vn 0.4935 -0.7753 -0.3942
vn 0.1793 0.1984 -0.9636
vn 0.1796 0.1986 -0.9635
vn -0.8554 0.3777 -0.3544
vn -0.0000 -0.0000 -1.0000
vn -0.5280 -0.6653 -0.5278
vn -0.7070 0.0000 0.7072
vn -0.8556 0.3776 -0.3541
vn -0.5531 0.1998 0.8088
vn 0.6076 0.4977 0.6189
vn -0.2910 -0.2567 0.9217
vn -0.2911 -0.2566 0.9216
vn -0.2915 -0.0546 0.9550
vn -0.3014 0.8414 0.4485
vn 0.0846 -0.4441 0.8920
vn 0.0843 -0.4446 0.8917
vn 0.1222 0.0072 0.9925
vn 0.0261 0.8616 0.5069
vn 0.3838 -0.4780 0.7901
vn 0.3840 -0.4769 0.7906
vn 0.4537 0.6405 0.6197
vn 0.6150 -0.3295 0.7164
vn -0.4752 -0.1785 -0.8616
vn 0.8075 0.0783 0.5847
vn 0.3307 0.9075 -0.2591
vn 0.8620 -0.1793 0.4742
vn -0.7071 0.0001 -0.7071
vn -0.7071 -0.0000 -0.7072
vn 0.7072 0.0001 0.7071
vn -0.3332 -0.4916 0.8045
vn -0.9453 -0.1784 -0.2732
vn -0.9453 -0.1783 -0.2731
vn -0.8689 0.2226 -0.4421
vn -0.8689 0.2225 -0.4421
vn -0.8838 0.0651 -0.4633
vn -0.5365 -0.8340 -0.1291
vn -0.5841 0.4754 -0.6579
vn -0.5836 0.4768 -0.6573
vn -0.6086 -0.0298 -0.7929
vn -0.2690 -0.8720 -0.4089
vn -0.3254 0.4806 -0.8143
vn -0.9183 -0.1100 0.3804
vn -0.9826 -0.1860 -0.0003
vn -0.1997 -0.9287 -0.3124
vn -0.2009 -0.9289 -0.3110
vn -0.2011 -0.9289 -0.3111
vn -0.7076 0.3570 -0.6098
vn -0.7064 0.3574 -0.6110
vn 0.0711 -0.7750 -0.6280
vn -0.5543 0.1986 -0.8083
vn -0.8554 0.3777 0.3543
vn -0.7071 0.0001 -0.7072
vn 0.0002 0.0000 1.0000
vn -0.8553 0.3777 0.3547
vn 0.1807 0.1998 0.9630
vn 0.1808 0.1998 0.9630
vn 0.4459 -0.2566 0.8575
vn 0.4458 -0.2566 0.8576
vn 0.4690 -0.0555 0.8814
vn 0.1041 0.8416 0.5300
vn 0.6898 -0.4456 0.5706
vn 0.6902 -0.4447 0.5709
vn 0.7882 0.0056 0.6154
vn 0.3768 0.8618 0.3397
vn 0.8303 -0.4771 0.2879
vn 0.8306 -0.4769 0.2875
vn 0.7587 0.6408 0.1172
vn 0.9413 -0.3298 0.0715
vn 0.9414 -0.3296 0.0717
vn 0.9844 0.0787 -0.1577
vn 0.0506 0.9077 -0.4166
vn 0.9448 -0.1792 -0.2744
vn 0.3335 -0.4917 0.8044
vn 1.0000 0.0001 0.0000
vn -0.7070 -0.0001 0.7072
vn 0.3334 -0.4916 0.8045
vn -0.8616 -0.1785 0.4752
vn -0.8616 -0.1784 0.4753
vn -0.9270 0.2226 0.3018
vn -0.9270 0.2225 0.3018
vn -0.9525 0.0654 0.2974
vn -0.4708 -0.8339 0.2880
vn -0.8774 0.4769 -0.0520
vn -0.8774 0.4769 -0.0522
vn -0.9911 -0.0286 -0.1299
vn -0.4790 -0.8722 -0.0990
vn -0.8060 0.4802 -0.3460
vn -0.3810 -0.1094 0.9181
vn -0.6930 -0.1860 0.6966
vn -0.3095 -0.9291 0.2023
vn -0.3113 -0.9289 0.2006
vn -0.3111 -0.9290 0.2006
vn -0.6105 0.3575 0.7067
vn -0.6076 0.4977 -0.6189
vn -0.6275 -0.7754 -0.0705
vn -0.8084 0.1986 0.5542
vn -0.8083 0.1986 0.5543
vn 0.5279 -0.6653 0.5278
vn -0.7071 0.0002 0.7071
vn 1.0000 -0.0003 -0.0005
vn 0.3546 0.3777 0.8553
vn 0.9630 0.1999 -0.1808
vn 0.9630 0.1998 -0.1808
vn 0.8574 -0.2568 -0.4460
vn 0.8575 -0.2566 -0.4459
vn 0.8813 -0.0571 -0.4691
vn 0.5304 0.8413 -0.1043
vn 0.5704 -0.4456 -0.6900
vn 0.5708 -0.4447 -0.6902
vn 0.6156 0.0058 -0.7880
vn 0.3395 0.8619 -0.3767
vn 0.2877 -0.4767 -0.8306
vn 0.2876 -0.4769 -0.8306
vn 0.1172 0.6406 -0.7589
vn 0.0715 -0.3298 -0.9414
vn 0.0716 -0.3296 -0.9414
vn -0.1578 0.0786 -0.9843
vn -0.4167 0.9077 -0.0496
vn -0.2746 -0.1792 -0.9447
vn -0.2744 -0.1792 -0.9448
vn 0.8045 -0.4916 -0.3334
vn 0.0000 -0.0002 -1.0000
vn 0.3333 -0.4914 -0.8046
vn -0.8619 -0.1792 -0.4743
vn 0.8046 -0.4915 -0.3333
vn -0.8620 -0.1793 -0.4740
vn 0.4752 -0.1785 0.8616
vn -0.6150 -0.3295 -0.7164
vn 0.3018 0.2226 0.9270
vn 0.3019 0.2226 0.9270
vn 0.2978 0.0634 0.9525
vn 0.2880 -0.8341 0.4704
vn -0.0521 0.4767 0.8775
vn -0.0520 0.4768 0.8774
vn -0.1300 -0.0284 0.9911
vn -0.0991 -0.8721 0.4792
vn -0.3444 0.4835 0.8048
vn 0.9183 -0.1090 0.3805
vn 0.6954 -0.1865 0.6940
vn -0.3613 -0.9291 -0.0784
vn -0.3621 -0.9289 -0.0780
vn -0.3623 -0.9288 -0.0777
vn -0.9316 0.3570 0.0681
vn -0.9315 0.3574 0.0675
vn -0.3940 -0.7754 -0.4935
vn -0.9636 0.1984 -0.1794
vn -0.9635 0.1985 -0.1796
vn -0.3542 0.3777 0.8555
vn -1.0000 -0.0000 0.0001
vn -0.5279 -0.6653 0.5278
vn 0.7071 -0.0001 0.7071
vn -0.3541 0.3776 0.8556
vn 0.8088 0.1999 0.5531
vn 0.6189 0.4977 -0.6076
vn 0.9216 -0.2567 0.2911
vn 0.9217 -0.2566 0.2910
vn 0.9549 -0.0557 0.2917
vn 0.4485 0.8414 0.3013
vn 0.8917 -0.4446 -0.0845
vn 0.8917 -0.4446 -0.0844
vn 0.9925 0.0062 -0.1223
vn 0.5070 0.8616 -0.0264
vn 0.7907 -0.4762 -0.3848
vn 0.7906 -0.4769 -0.3840
vn 0.6194 0.6407 -0.4537
vn 0.7163 -0.3294 -0.6151
vn -0.8615 -0.1784 0.4754
vn 0.5848 0.0779 -0.8075
vn -0.2591 0.9073 -0.3312
vn 0.4741 -0.1792 -0.8620
vn -0.7071 0.0001 0.7071
vn -0.7071 -0.0001 0.7071
vn 0.8046 -0.4916 0.3330
vn -0.2732 -0.1785 0.9453
vn -0.2731 -0.1785 0.9453
vn -0.4422 0.2225 0.8689
vn -0.4420 0.2226 0.8690
vn -0.4632 0.0648 0.8839
vn -0.1290 -0.8338 0.5367
vn -0.6573 0.4771 0.5834
vn -0.6574 0.4768 0.5835
vn -0.7927 -0.0279 0.6090
vn -0.4089 -0.8721 0.2688
vn -0.8145 0.4803 0.3255
vn 0.3822 -0.1075 0.9178
vn 0.0015 -0.1865 0.9825
s 1
f 1/1/1 2/2/2 3/3/3
f 4/4/4 5/5/5 2/6/2
f 2/7/2 5/8/5 3/9/3
f 4/10/4 6/11/6 5/12/5
f 7/13/7 8/14/8 6/15/6
f 6/16/6 8/17/8 5/18/5
f 7/19/7 9/20/9 8/21/8
f 10/22/10 11/23/11 9/24/9
f 9/25/9 11/26/11 8/27/8
f 12/28/12 13/29/13 10/30/10
f 10/31/10 13/32/13 11/33/11
f 12/34/12 14/35/14 13/36/13
f 15/37/15 16/38/16 14/39/14
f 14/40/14 16/41/16 13/42/13
f 17/43/17 18/44/18 15/45/15
f 15/46/15 18/47/18 16/48/16
f 17/49/17 19/50/19 18/51/18
f 19/52/19 20/53/20 18/54/18
f 21/55/21 22/56/22 20/57/20
f 20/58/20 22/59/22 18/60/18
f 21/61/21 23/62/23 22/63/22
f 23/64/23 24/65/24 22/66/22
f 25/67/25 26/68/26 24/69/24
f 24/70/24 26/71/26 22/72/22
f 25/73/25 27/74/27 26/75/26
f 28/76/28 29/77/29 27/78/27
f 27/79/27 29/80/29 26/81/26
f 28/82/28 30/83/30 29/84/29
f 30/85/30 31/86/31 29/87/29
f 32/88/32 33/89/33 31/90/31
f 31/91/31 33/92/33 29/93/29
f 32/94/32 34/95/34 33/96/33
f 35/97/35 36/98/36 34/99/34
f 34/100/34 36/101/36 33/102/37
f 37/103/38 38/104/39 35/105/35
f 35/106/35 38/107/39 36/108/36
f 37/109/38 39/110/40 38/111/39
f 40/112/41 41/113/42 39/114/40
f 39/115/40 41/116/42 38/117/39
f 42/118/43 43/119/44 40/120/41
f 40/121/41 43/122/44 41/123/42
f 42/124/43 44/125/45 43/126/44
f 44/127/45 45/128/46 43/129/44
f 46/130/47 47/131/48 45/132/46
f 45/133/46 47/134/48 43/135/44
f 46/136/47 48/137/49 47/138/48
f 48/139/49 49/140/50 47/141/48
f 50/142/51 3/143/3 49/144/50
f 49/145/50 3/146/3 47/147/48
f 1/148/1 3/149/3 50/150/51
f 47/151/48 3/152/3 22/153/22
f 3/154/3 18/155/18 22/156/22
f 47/157/48 22/158/22 26/159/26
f 3/160/3 5/161/5 18/162/18
f 47/163/48 26/164/26 43/165/44
f 5/166/5 16/167/16 18/168/18
f 26/169/26 29/170/29 43/171/44
f 8/172/8 13/173/13 5/174/5
f 5/175/5 13/176/13 16/177/16
f 41/178/42 43/179/44 29/180/29
f 11/181/11 13/182/13 8/183/8
f 33/184/37 38/185/39 29/186/29
f 29/187/29 38/188/39 41/189/42
f 36/190/36 38/191/39 33/192/37
f 23/193/23 21/194/21 48/195/49
f 48/196/49 21/197/21 50/198/51
f 48/199/49 50/200/51 49/201/50
f 21/202/21 20/203/20 50/204/51
f 50/205/51 20/206/20 19/207/19
f 50/208/51 19/209/19 1/210/1
f 51/211/52 25/212/25 24/213/24
f 51/214/52 24/215/24 46/216/47
f 46/217/47 24/218/24 23/219/23
f 46/220/47 23/221/23 48/222/49
f 1/223/1 19/224/19 17/225/17
f 17/226/17 52/227/53 1/228/1
f 1/229/1 52/230/53 4/231/4
f 1/232/1 4/233/4 2/234/2
f 44/235/45 51/236/52 45/237/46
f 45/238/46 51/239/52 46/240/47
f 17/241/17 15/242/15 52/243/53
f 28/244/28 27/245/27 42/246/43
f 42/247/43 27/248/27 25/249/25
f 42/250/43 25/251/25 44/252/45
f 44/253/45 25/254/25 51/255/52
f 52/256/53 15/257/15 14/258/14
f 14/259/14 12/260/12 52/261/53
f 52/262/53 12/263/12 9/264/9
f 52/265/53 9/266/9 4/267/4
f 4/268/4 9/269/9 7/270/7
f 4/271/4 7/272/7 6/273/6
f 42/274/43 40/275/41 28/276/28
f 28/277/28 40/278/41 30/279/30
f 9/280/9 12/281/12 10/282/10
f 40/283/41 39/284/40 30/285/30
f 30/286/30 39/287/40 37/288/38
f 30/289/30 37/290/38 31/291/31
f 31/292/31 37/293/38 34/294/34
f 31/295/31 34/296/34 32/297/32
f 34/298/34 37/299/38 35/300/35
f 53/301/54 54/302/55 55/303/56
f 56/304/57 57/305/58 54/306/55
f 54/307/55 57/308/58 55/309/56
f 56/310/57 58/311/59 57/312/58
f 59/313/60 60/314/61 58/315/59
f 58/316/59 60/317/61 57/318/58
f 59/319/60 61/320/62 60/321/61
f 62/322/63 63/323/64 61/324/62
f 61/325/62 63/326/64 60/327/61
f 64/328/65 65/329/66 62/330/63
f 62/331/63 65/332/66 63/333/64
f 64/334/65 66/335/62 65/336/66
f 67/337/67 68/338/68 66/339/62
f 66/340/62 68/341/68 65/342/66
f 69/343/69 70/344/70 67/345/67
f 67/346/67 70/347/70 68/348/68
f 69/349/69 71/350/71 70/351/70
f 71/352/71 72/353/72 70/354/70
f 73/355/73 74/356/74 72/357/72
f 72/358/72 74/359/74 70/360/70
f 73/361/73 75/362/75 74/363/74
f 75/364/75 76/365/76 74/366/74
f 77/367/77 78/368/78 76/369/76
f 76/370/76 78/371/78 74/372/74
f 77/373/77 79/374/79 78/375/78
f 80/376/80 81/377/81 79/378/79
f 79/379/79 81/380/81 78/381/78
f 80/382/80 82/383/82 81/384/81
f 82/385/82 83/386/83 81/387/81
f 84/388/84 85/389/85 83/390/83
f 83/391/83 85/392/85 81/393/81
f 84/394/84 86/395/86 85/396/85
f 87/397/87 88/398/88 86/399/86
f 86/400/86 88/401/88 85/402/85
f 89/403/89 90/404/90 87/405/87
f 87/406/87 90/407/90 88/408/88
f 89/409/89 91/410/91 90/411/92
f 92/412/93 93/413/94 91/414/91
f 91/415/91 93/416/94 90/417/92
f 94/418/95 95/419/96 92/420/93
f 92/421/93 95/422/96 93/423/94
f 94/424/95 96/425/97 95/426/96
f 96/427/97 97/428/98 95/429/96
f 98/430/99 99/431/100 97/432/98
f 97/433/98 99/434/100 95/435/96
f 98/436/99 100/437/101 99/438/100
f 100/439/101 101/440/102 99/441/100
f 102/442/103 55/443/56 101/444/102
f 101/445/102 55/446/56 99/447/100
f 53/448/54 55/449/56 102/450/103
f 99/451/100 55/452/56 74/453/74
f 55/454/56 70/455/70 74/456/74
f 99/457/100 74/458/74 78/459/78
f 55/460/56 57/461/58 70/462/70
f 99/463/100 78/464/78 95/465/96
f 57/466/58 68/467/68 70/468/70
f 78/469/78 81/470/81 95/471/96
f 60/472/61 65/473/66 57/474/58
f 57/475/58 65/476/66 68/477/68
f 93/478/94 95/479/96 81/480/81
f 63/481/64 65/482/66 60/483/61
f 85/484/85 90/485/90 81/486/81
f 81/487/81 90/488/90 93/489/94
f 88/490/88 90/491/90 85/492/85
f 75/493/75 73/494/73 100/495/101
f 100/496/101 73/497/73 102/498/103
f 100/499/101 102/500/103 101/501/102
f 73/502/73 72/503/72 102/504/103
f 102/505/103 72/506/72 71/507/71
f 102/508/103 71/509/71 53/510/54
f 103/511/104 77/512/77 76/513/76
f 103/514/104 76/515/76 98/516/99
f 98/517/99 76/518/76 75/519/75
f 98/520/99 75/521/75 100/522/101
f 53/523/54 71/524/71 69/525/69
f 69/526/69 104/527/105 53/528/54
f 53/529/54 104/530/105 56/531/57
f 53/532/54 56/533/57 54/534/55
f 96/535/97 103/536/104 97/537/98
f 97/538/98 103/539/104 98/540/99
f 69/541/69 67/542/67 104/543/105
f 80/544/80 79/545/79 94/546/95
f 94/547/95 79/548/79 77/549/77
f 94/550/95 77/551/77 96/552/97
f 96/553/97 77/554/77 103/555/104
f 104/556/105 67/557/67 66/558/62
f 66/559/62 64/560/65 104/561/105
f 104/562/105 64/563/65 61/564/62
f 104/565/105 61/566/62 56/567/57
f 56/568/57 61/569/62 59/570/60
f 56/571/57 59/572/60 58/573/59
f 94/574/95 92/575/93 80/576/80
f 80/577/80 92/578/93 82/579/82
f 61/580/62 64/581/65 62/582/63
f 92/583/93 91/584/91 82/585/82
f 82/586/82 91/587/91 89/588/89
f 82/589/82 89/590/89 83/591/83
f 83/592/83 89/593/89 86/594/86
f 83/595/83 86/596/86 84/597/84
f 86/598/86 89/599/89 87/600/87
f 105/601/106 106/602/107 107/603/108
f 108/604/109 109/605/110 106/606/107
f 106/607/107 109/608/110 107/609/108
f 108/610/109 110/611/111 109/612/110
f 111/613/112 112/614/113 110/615/111
f 110/616/111 112/617/113 109/618/110
f 111/619/112 113/620/114 112/621/113
f 114/622/115 115/623/116 113/624/114
f 113/625/114 115/626/116 112/627/113
f 61/628/117 116/629/36 114/630/115
f 114/631/115 116/632/36 115/633/116
f 61/634/117 117/635/118 116/636/36
f 118/637/119 57/638/120 117/639/118
f 117/640/118 57/641/120 116/642/36
f 119/643/121 120/644/122 118/645/119
f 118/646/119 120/647/122 57/648/120
f 119/649/121 121/650/123 120/651/122
f 121/652/123 122/653/124 120/654/122
f 123/655/125 124/656/126 122/657/124
f 122/658/124 124/659/126 120/660/122
f 123/661/125 125/662/127 124/663/126
f 125/664/127 126/665/128 124/666/126
f 127/667/129 128/668/130 126/669/128
f 126/670/128 128/671/130 124/672/126
f 127/673/129 129/674/131 128/675/130
f 130/676/132 93/677/133 129/678/131
f 129/679/131 93/680/133 128/681/130
f 130/682/132 131/683/134 93/684/133
f 131/685/134 132/686/135 93/687/133
f 133/688/136 90/689/137 132/690/135
f 132/691/135 90/692/137 93/693/133
f 133/694/136 89/695/138 90/696/137
f 134/697/139 135/698/139 89/699/138
f 89/700/138 135/701/139 90/702/140
f 136/703/141 137/704/141 134/705/139
f 134/706/139 137/707/141 135/708/139
f 136/709/141 138/710/142 137/711/141
f 139/712/143 140/713/143 138/714/142
f 138/715/142 140/716/143 137/717/141
f 141/718/144 142/719/145 139/720/143
f 139/721/143 142/722/145 140/723/143
f 141/724/144 143/725/146 142/726/145
f 143/727/146 144/728/147 142/729/145
f 145/730/148 146/731/149 144/732/147
f 144/733/147 146/734/149 142/735/145
f 145/736/148 147/737/150 146/738/149
f 147/739/150 148/740/151 146/741/149
f 149/742/152 107/743/108 148/744/151
f 148/745/151 107/746/108 146/747/149
f 105/748/106 107/749/108 149/750/152
f 146/751/149 107/752/108 124/753/126
f 107/754/108 120/755/122 124/756/126
f 146/757/149 124/758/126 128/759/130
f 107/760/108 109/761/110 120/762/122
f 146/763/149 128/764/130 142/765/145
f 109/766/110 57/767/120 120/768/122
f 128/769/130 93/770/133 142/771/145
f 112/772/113 116/773/36 109/774/110
f 109/775/110 116/776/36 57/777/120
f 140/778/143 142/779/145 93/780/133
f 115/781/116 116/782/36 112/783/113
f 90/784/140 137/785/141 93/786/133
f 93/787/133 137/788/141 140/789/143
f 135/790/139 137/791/141 90/792/140
f 125/793/127 123/794/125 147/795/150
f 147/796/150 123/797/125 149/798/152
f 147/799/150 149/800/152 148/801/151
f 123/802/125 122/803/124 149/804/152
f 149/805/152 122/806/124 121/807/123
f 149/808/152 121/809/123 105/810/106
f 150/811/153 127/812/129 126/813/128
f 150/814/153 126/815/128 145/816/148
f 145/817/148 126/818/128 125/819/127
f 145/820/148 125/821/127 147/822/150
f 105/823/106 121/824/123 119/825/121
f 119/826/121 151/827/154 105/828/106
f 105/829/106 151/830/154 108/831/109
f 105/832/106 108/833/109 106/834/107
f 143/835/146 150/836/153 144/837/147
f 144/838/147 150/839/153 145/840/148
f 119/841/121 118/842/119 151/843/154
f 130/844/132 129/845/131 141/846/144
f 141/847/144 129/848/131 127/849/129
f 141/850/144 127/851/129 143/852/146
f 143/853/146 127/854/129 150/855/153
f 151/856/154 118/857/119 117/858/118
f 117/859/118 61/860/117 151/861/154
f 151/862/154 61/863/117 113/864/114
f 151/865/154 113/866/114 108/867/109
f 108/868/109 113/869/114 111/870/112
f 108/871/109 111/872/112 110/873/111
f 141/874/144 139/875/143 130/876/132
f 130/877/132 139/878/143 131/879/134
f 113/880/114 61/881/117 114/882/115
f 139/883/143 138/884/142 131/885/134
f 131/886/134 138/887/142 136/888/141
f 131/889/134 136/890/141 132/891/135
f 132/892/135 136/893/141 89/894/138
f 132/895/135 89/896/138 133/897/136
f 89/898/138 136/899/141 134/900/139
f 152/901/155 153/902/156 154/903/157
f 155/904/158 156/905/159 153/906/156
f 153/907/156 156/908/159 154/909/157
f 155/910/158 157/911/160 156/912/159
f 158/913/161 159/914/162 157/915/160
f 157/916/160 159/917/162 156/918/159
f 158/919/161 160/920/163 159/921/162
f 161/922/12 162/923/164 160/924/163
f 160/925/163 162/926/164 159/927/162
f 163/928/165 164/929/88 161/930/12
f 161/931/12 164/932/88 162/933/164
f 163/934/165 165/935/166 164/936/88
f 166/937/167 167/938/168 165/939/166
f 165/940/166 167/941/168 164/942/88
f 168/943/169 169/944/170 166/945/167
f 166/946/167 169/947/170 167/948/168
f 168/949/169 170/950/171 169/951/170
f 170/952/171 171/953/172 169/954/170
f 172/955/173 173/956/174 171/957/172
f 171/958/172 173/959/174 169/960/170
f 172/961/173 174/962/175 173/963/174
f 174/964/175 175/965/176 173/966/174
f 176/967/177 177/968/178 175/969/176
f 175/970/176 177/971/178 173/972/174
f 176/973/177 178/974/179 177/975/178
f 179/976/180 180/977/181 178/978/179
f 178/979/179 180/980/181 177/981/178
f 179/982/180 181/983/182 180/984/181
f 181/985/182 182/986/183 180/987/181
f 183/988/184 184/989/185 182/990/183
f 182/991/183 184/992/185 180/993/181
f 183/994/184 185/995/186 184/996/185
f 186/997/11 187/998/187 185/999/186
f 185/1000/186 187/1001/187 184/1002/185
f 188/1003/188 189/1004/189 186/1005/11
f 186/1006/11 189/1007/189 187/1008/187
f 188/1009/188 190/1010/190 189/1011/191
f 191/1012/192 192/1013/193 190/1014/190
f 190/1015/190 192/1016/193 189/1017/191
f 193/1018/194 194/1019/195 191/1020/192
f 191/1021/192 194/1022/195 192/1023/193
f 193/1024/194 195/1025/196 194/1026/195
f 195/1027/196 196/1028/197 194/1029/195
f 197/1030/198 198/1031/199 196/1032/197
f 196/1033/197 198/1034/199 194/1035/195
f 197/1036/198 199/1037/200 198/1038/199
f 199/1039/200 200/1040/201 198/1041/199
f 201/1042/202 154/1043/157 200/1044/201
f 200/1045/201 154/1046/157 198/1047/199
f 152/1048/155 154/1049/157 201/1050/202
f 198/1051/199 154/1052/157 173/1053/174
f 154/1054/157 169/1055/170 173/1056/174
f 198/1057/199 173/1058/174 177/1059/178
f 154/1060/157 156/1061/159 169/1062/170
f 198/1063/199 177/1064/178 194/1065/195
f 156/1066/159 167/1067/168 169/1068/170
f 177/1069/178 180/1070/181 194/1071/195
f 159/1072/162 164/1073/88 156/1074/159
f 156/1075/159 164/1076/88 167/1077/168
f 192/1078/193 194/1079/195 180/1080/181
f 162/1081/164 164/1082/88 159/1083/162
f 184/1084/185 189/1085/189 180/1086/181
f 180/1087/181 189/1088/189 192/1089/193
f 187/1090/187 189/1091/189 184/1092/185
f 174/1093/175 172/1094/173 199/1095/200
f 199/1096/200 172/1097/173 201/1098/202
f 199/1099/200 201/1100/202 200/1101/201
f 172/1102/173 171/1103/172 201/1104/202
f 201/1105/202 171/1106/172 170/1107/171
f 201/1108/202 170/1109/171 152/1110/155
f 202/1111/203 176/1112/177 175/1113/176
f 202/1114/203 175/1115/176 197/1116/198
f 197/1117/198 175/1118/176 174/1119/175
f 197/1120/198 174/1121/175 199/1122/200
f 152/1123/155 170/1124/171 168/1125/169
f 168/1126/169 203/1127/204 152/1128/155
f 152/1129/155 203/1130/204 155/1131/158
f 152/1132/155 155/1133/158 153/1134/156
f 195/1135/196 202/1136/203 196/1137/197
f 196/1138/197 202/1139/203 197/1140/198
f 168/1141/169 166/1142/167 203/1143/204
f 179/1144/180 178/1145/179 193/1146/194
f 193/1147/194 178/1148/179 176/1149/177
f 193/1150/194 176/1151/177 195/1152/196
f 195/1153/196 176/1154/177 202/1155/203
f 203/1156/204 166/1157/167 165/1158/166
f 165/1159/166 163/1160/165 203/1161/204
f 203/1162/204 163/1163/165 160/1164/163
f 203/1165/204 160/1166/163 155/1167/158
f 155/1168/158 160/1169/163 158/1170/161
f 155/1171/158 158/1172/161 157/1173/160
f 193/1174/194 191/1175/192 179/1176/180
f 179/1177/180 191/1178/192 181/1179/182
f 160/1180/163 163/1181/165 161/1182/12
f 191/1183/192 190/1184/190 181/1185/182
f 181/1186/182 190/1187/190 188/1188/188
f 181/1189/182 188/1190/188 182/1191/183
f 182/1192/183 188/1193/188 185/1194/186
f 182/1195/183 185/1196/186 183/1197/184
f 185/1198/186 188/1199/188 186/1200/11
f 204/1201/205 205/1202/206 206/1203/207
f 207/1204/208 208/1205/209 205/1206/206
f 205/1207/206 208/1208/209 206/1209/207
f 207/1210/208 209/1211/210 208/1212/209
f 210/1213/211 211/1214/212 209/1215/210
f 209/1216/210 211/1217/212 208/1218/209
f 210/1219/211 212/1220/213 211/1221/212
f 213/1222/214 214/1223/141 212/1224/213
f 212/1225/213 214/1226/141 211/1227/212
f 160/1228/215 215/1229/216 213/1230/214
f 213/1231/214 215/1232/216 214/1233/141
f 160/1234/215 216/1235/217 215/1236/216
f 217/1237/218 156/1238/219 216/1239/217
f 216/1240/217 156/1241/219 215/1242/216
f 218/1243/220 219/1244/221 217/1245/218
f 217/1246/218 219/1247/221 156/1248/219
f 218/1249/220 220/1250/222 219/1251/221
f 220/1252/222 221/1253/223 219/1254/221
f 222/1255/224 223/1256/225 221/1257/223
f 221/1258/223 223/1259/225 219/1260/221
f 222/1261/224 224/1262/226 223/1263/225
f 224/1264/226 225/1265/227 223/1266/225
f 226/1267/228 227/1268/229 225/1269/227
f 225/1270/227 227/1271/229 223/1272/225
f 226/1273/228 228/1274/230 227/1275/229
f 229/1276/231 192/1277/232 228/1278/230
f 228/1279/230 192/1280/232 227/1281/229
f 229/1282/231 230/1283/233 192/1284/232
f 230/1285/233 231/1286/234 192/1287/232
f 232/1288/235 189/1289/236 231/1290/234
f 231/1291/234 189/1292/236 192/1293/232
f 232/1294/235 188/1295/237 189/1296/236
f 233/1297/63 234/1298/238 188/1299/237
f 188/1300/237 234/1301/238 189/1302/188
f 235/1303/87 236/1304/88 233/1305/63
f 233/1306/63 236/1307/88 234/1308/238
f 235/1309/87 237/1310/239 236/1311/88
f 238/1312/240 239/1313/241 237/1314/239
f 237/1315/239 239/1316/241 236/1317/88
f 240/1318/242 241/1319/243 238/1320/240
f 238/1321/240 241/1322/243 239/1323/241
f 240/1324/242 242/1325/244 241/1326/243
f 242/1327/244 243/1328/245 241/1329/243
f 244/1330/246 245/1331/247 243/1332/245
f 243/1333/245 245/1334/247 241/1335/243
f 244/1336/246 246/1337/248 245/1338/247
f 246/1339/248 247/1340/249 245/1341/247
f 248/1342/250 206/1343/207 247/1344/249
f 247/1345/249 206/1346/207 245/1347/247
f 204/1348/205 206/1349/207 248/1350/250
f 245/1351/247 206/1352/207 223/1353/225
f 206/1354/207 219/1355/221 223/1356/225
f 245/1357/247 223/1358/225 227/1359/229
f 206/1360/207 208/1361/209 219/1362/221
f 245/1363/247 227/1364/229 241/1365/243
f 208/1366/209 156/1367/219 219/1368/221
f 227/1369/229 192/1370/232 241/1371/243
f 211/1372/212 215/1373/216 208/1374/209
f 208/1375/209 215/1376/216 156/1377/219
f 239/1378/241 241/1379/243 192/1380/232
f 214/1381/141 215/1382/216 211/1383/212
f 189/1384/188 236/1385/88 192/1386/232
f 192/1387/232 236/1388/88 239/1389/241
f 234/1390/238 236/1391/88 189/1392/188
f 224/1393/226 222/1394/224 246/1395/248
f 246/1396/248 222/1397/224 248/1398/250
f 246/1399/248 248/1400/250 247/1401/249
f 222/1402/224 221/1403/223 248/1404/250
f 248/1405/250 221/1406/223 220/1407/222
f 248/1408/250 220/1409/222 204/1410/205
f 249/1411/251 226/1412/228 225/1413/227
f 249/1414/251 225/1415/227 244/1416/246
f 244/1417/246 225/1418/227 224/1419/226
f 244/1420/246 224/1421/226 246/1422/248
f 204/1423/205 220/1424/222 218/1425/220
f 218/1426/220 250/1427/252 204/1428/205
f 204/1429/205 250/1430/252 207/1431/208
f 204/1432/205 207/1433/208 205/1434/206
f 242/1435/244 249/1436/251 243/1437/245
f 243/1438/245 249/1439/251 244/1440/246
f 218/1441/220 217/1442/218 250/1443/252
f 229/1444/231 228/1445/230 240/1446/242
f 240/1447/242 228/1448/230 226/1449/228
f 240/1450/242 226/1451/228 242/1452/244
f 242/1453/244 226/1454/228 249/1455/251
f 250/1456/252 217/1457/218 216/1458/217
f 216/1459/217 160/1460/215 250/1461/252
f 250/1462/252 160/1463/215 212/1464/213
f 250/1465/252 212/1466/213 207/1467/208
f 207/1468/208 212/1469/213 210/1470/211
f 207/1471/208 210/1472/211 209/1473/210
f 240/1474/242 238/1475/240 229/1476/231
f 229/1477/231 238/1478/240 230/1479/233
f 212/1480/213 160/1481/215 213/1482/214
f 238/1483/240 237/1484/239 230/1485/233
f 230/1486/233 237/1487/239 235/1488/87
f 230/1489/233 235/1490/87 231/1491/234
f 231/1492/234 235/1493/87 188/1494/237
f 231/1495/234 188/1496/237 232/1497/235
f 188/1498/237 235/1499/87 233/1500/63
f 251/1501/253 252/1502/254 253/1503/255
f 254/1504/256 255/1505/257 252/1506/254
f 252/1507/254 255/1508/257 253/1509/255
f 254/1510/256 256/1511/258 255/1512/257
f 257/1513/259 258/1514/259 256/1515/258
f 256/1516/258 258/1517/259 255/1518/257
f 257/1519/259 259/1520/260 258/1521/259
f 260/1522/36 261/1523/261 259/1524/260
f 259/1525/260 261/1526/261 258/1527/259
f 262/1528/262 263/1529/187 260/1530/36
f 260/1531/36 263/1532/187 261/1533/261
f 262/1534/262 264/1535/263 263/1536/187
f 265/1537/264 266/1538/265 264/1539/263
f 264/1540/263 266/1541/265 263/1542/187
f 267/1543/266 268/1544/267 265/1545/264
f 265/1546/264 268/1547/267 266/1548/265
f 267/1549/266 269/1550/268 268/1551/267
f 269/1552/268 270/1553/269 268/1554/267
f 271/1555/270 272/1556/271 270/1557/269
f 270/1558/269 272/1559/271 268/1560/267
f 271/1561/270 273/1562/272 272/1563/271
f 273/1564/272 274/1565/273 272/1566/271
f 275/1567/274 276/1568/275 274/1569/273
f 274/1570/273 276/1571/275 272/1572/271
f 275/1573/274 277/1574/276 276/1575/275
f 278/1576/277 279/1577/278 277/1578/276
f 277/1579/276 279/1580/278 276/1581/275
f 278/1582/277 280/1583/279 279/1584/278
f 280/1585/279 281/1586/280 279/1587/278
f 282/1588/281 283/1589/281 281/1590/280
f 281/1591/280 283/1592/281 279/1593/278
f 282/1594/281 284/1595/282 283/1596/281
f 285/1597/115 286/1598/283 284/1599/282
f 284/1600/282 286/1601/283 283/1602/281
f 287/1603/216 288/1604/284 285/1605/115
f 285/1606/115 288/1607/284 286/1608/283
f 287/1609/216 289/1610/285 288/1611/216
f 290/1612/286 291/1613/287 289/1614/285
f 289/1615/285 291/1616/287 288/1617/216
f 292/1618/288 293/1619/289 290/1620/286
f 290/1621/286 293/1622/289 291/1623/287
f 292/1624/288 294/1625/290 293/1626/289
f 294/1627/290 295/1628/291 293/1629/289
f 296/1630/292 297/1631/293 295/1632/291
f 295/1633/291 297/1634/293 293/1635/289
f 296/1636/292 298/1637/294 297/1638/293
f 298/1639/294 299/1640/295 297/1641/293
f 300/1642/296 253/1643/255 299/1644/295
f 299/1645/295 253/1646/255 297/1647/293
f 251/1648/253 253/1649/255 300/1650/296
f 297/1651/293 253/1652/255 272/1653/271
f 253/1654/255 268/1655/267 272/1656/271
f 297/1657/293 272/1658/271 276/1659/275
f 253/1660/255 255/1661/257 268/1662/267
f 297/1663/293 276/1664/275 293/1665/289
f 255/1666/257 266/1667/265 268/1668/267
f 276/1669/275 279/1670/278 293/1671/289
f 258/1672/259 263/1673/187 255/1674/257
f 255/1675/257 263/1676/187 266/1677/265
f 291/1678/287 293/1679/289 279/1680/278
f 261/1681/261 263/1682/187 258/1683/259
f 283/1684/281 288/1685/284 279/1686/278
f 279/1687/278 288/1688/284 291/1689/287
f 286/1690/283 288/1691/284 283/1692/281
f 273/1693/272 271/1694/270 298/1695/294
f 298/1696/294 271/1697/270 300/1698/296
f 298/1699/294 300/1700/296 299/1701/295
f 271/1702/270 270/1703/269 300/1704/296
f 300/1705/296 270/1706/269 269/1707/268
f 300/1708/296 269/1709/268 251/1710/253
f 301/1711/297 275/1712/274 274/1713/273
f 301/1714/297 274/1715/273 296/1716/292
f 296/1717/292 274/1718/273 273/1719/272
f 296/1720/292 273/1721/272 298/1722/294
f 251/1723/253 269/1724/268 267/1725/266
f 267/1726/266 302/1727/298 251/1728/253
f 251/1729/253 302/1730/298 254/1731/256
f 251/1732/253 254/1733/256 252/1734/254
f 294/1735/290 301/1736/297 295/1737/291
f 295/1738/291 301/1739/297 296/1740/292
f 267/1741/266 265/1742/264 302/1743/298
f 278/1744/277 277/1745/276 292/1746/288
f 292/1747/288 277/1748/276 275/1749/274
f 292/1750/288 275/1751/274 294/1752/290
f 294/1753/290 275/1754/274 301/1755/297
f 302/1756/298 265/1757/264 264/1758/263
f 264/1759/263 262/1760/262 302/1761/298
f 302/1762/298 262/1763/262 259/1764/260
f 302/1765/298 259/1766/260 254/1767/256
f 254/1768/256 259/1769/260 257/1770/259
f 254/1771/256 257/1772/259 256/1773/258
f 292/1774/288 290/1775/286 278/1776/277
f 278/1777/277 290/1778/286 280/1779/279
f 259/1780/260 262/1781/262 260/1782/36
f 290/1783/286 289/1784/285 280/1785/279
f 280/1786/279 289/1787/285 287/1788/216
f 280/1789/279 287/1790/216 281/1791/280
f 281/1792/280 287/1793/216 284/1794/282
f 281/1795/280 284/1796/282 282/1797/281
f 284/1798/282 287/1799/216 285/1800/115
f 303/1801/299 304/1802/300 305/1803/301
f 306/1804/302 16/1805/303 304/1806/300
f 304/1807/300 16/1808/303 305/1809/301
f 306/1810/302 307/1811/304 16/1812/303
f 308/1813/305 309/1814/306 307/1815/304
f 307/1816/304 309/1817/306 16/1818/303
f 308/1819/305 12/1820/307 309/1821/306
f 310/1822/139 311/1823/308 12/1824/307
f 12/1825/307 311/1826/308 309/1827/306
f 312/1828/309 313/1829/115 310/1830/139
f 310/1831/139 313/1832/115 311/1833/308
f 312/1834/309 314/1835/310 313/1836/115
f 315/1837/311 316/1838/312 314/1839/310
f 314/1840/310 316/1841/312 313/1842/115
f 317/1843/313 318/1844/314 315/1845/311
f 315/1846/311 318/1847/314 316/1848/312
f 317/1849/313 319/1850/315 318/1851/314
f 319/1852/315 320/1853/316 318/1854/314
f 321/1855/317 322/1856/318 320/1857/316
f 320/1858/316 322/1859/318 318/1860/314
f 321/1861/317 323/1862/319 322/1863/318
f 323/1864/319 324/1865/320 322/1866/318
f 325/1867/321 326/1868/322 324/1869/320
f 324/1870/320 326/1871/322 322/1872/318
f 325/1873/321 327/1874/323 326/1875/322
f 328/1876/324 329/1877/325 327/1878/323
f 327/1879/323 329/1880/325 326/1881/322
f 328/1882/324 330/1883/326 329/1884/325
f 330/1885/326 331/1886/327 329/1887/325
f 332/1888/328 333/1889/329 331/1890/327
f 331/1891/327 333/1892/329 329/1893/325
f 332/1894/328 334/1895/330 333/1896/329
f 335/1897/214 336/1898/331 334/1899/330
f 334/1900/330 336/1901/331 333/1902/329
f 34/1903/332 33/1904/333 335/1905/214
f 335/1906/214 33/1907/333 336/1908/331
f 34/1909/332 337/1910/334 33/1911/335
f 338/1912/336 29/1913/337 337/1914/334
f 337/1915/334 29/1916/337 33/1917/335
f 339/1918/338 340/1919/339 338/1920/336
f 338/1921/336 340/1922/339 29/1923/337
f 339/1924/338 341/1925/340 340/1926/339
f 341/1927/340 342/1928/341 340/1929/339
f 343/1930/342 344/1931/343 342/1932/341
f 342/1933/341 344/1934/343 340/1935/339
f 343/1936/342 345/1937/344 344/1938/343
f 345/1939/344 346/1940/345 344/1941/343
f 347/1942/346 305/1943/301 346/1944/345
f 346/1945/345 305/1946/301 344/1947/343
f 303/1948/299 305/1949/301 347/1950/346
f 344/1951/343 305/1952/301 322/1953/318
f 305/1954/301 318/1955/314 322/1956/318
f 344/1957/343 322/1958/318 326/1959/322
f 305/1960/301 16/1961/303 318/1962/314
f 344/1963/343 326/1964/322 340/1965/339
f 16/1966/303 316/1967/312 318/1968/314
f 326/1969/322 329/1970/325 340/1971/339
f 309/1972/306 313/1973/115 16/1974/303
f 16/1975/303 313/1976/115 316/1977/312
f 29/1978/337 340/1979/339 329/1980/325
f 311/1981/308 313/1982/115 309/1983/306
f 333/1984/329 33/1985/333 329/1986/325
f 329/1987/325 33/1988/333 29/1989/337
f 336/1990/331 33/1991/333 333/1992/329
f 323/1993/319 321/1994/317 345/1995/344
f 345/1996/344 321/1997/317 347/1998/346
f 345/1999/344 347/2000/346 346/2001/345
f 321/2002/317 320/2003/316 347/2004/346
f 347/2005/346 320/2006/316 319/2007/315
f 347/2008/346 319/2009/315 303/2010/299
f 348/2011/347 325/2012/321 324/2013/320
f 348/2014/347 324/2015/320 343/2016/342
f 343/2017/342 324/2018/320 323/2019/319
f 343/2020/342 323/2021/319 345/2022/344
f 303/2023/299 319/2024/315 317/2025/313
f 317/2026/313 349/2027/348 303/2028/299
f 303/2029/299 349/2030/348 306/2031/302
f 303/2032/299 306/2033/302 304/2034/300
f 341/2035/340 348/2036/347 342/2037/341
f 342/2038/341 348/2039/347 343/2040/342
f 317/2041/313 315/2042/311 349/2043/348
f 328/2044/324 327/2045/323 339/2046/338
f 339/2047/338 327/2048/323 325/2049/321
f 339/2050/338 325/2051/321 341/2052/340
f 341/2053/340 325/2054/321 348/2055/347
f 349/2056/348 315/2057/311 314/2058/310
f 314/2059/310 312/2060/309 349/2061/348
f 349/2062/348 312/2063/309 12/2064/307
f 349/2065/348 12/2066/307 306/2067/302
f 306/2068/302 12/2069/307 308/2070/305
f 306/2071/302 308/2072/305 307/2073/304
f 339/2074/338 338/2075/336 328/2076/324
f 328/2077/324 338/2078/336 330/2079/326
f 12/2080/307 312/2081/309 310/2082/139
f 338/2083/336 337/2084/334 330/2085/326
f 330/2086/326 337/2087/334 34/2088/332
f 330/2089/326 34/2090/332 331/2091/327
f 331/2092/327 34/2093/332 334/2094/330
f 331/2095/327 334/2096/330 332/2097/328
f 334/2098/330 34/2099/332 335/2100/214
f 350/2101/349 351/2102/350 352/2103/351
f 353/2104/352 354/2105/353 351/2106/350
f 351/2107/350 354/2108/353 352/2109/351
f 353/2110/352 355/2111/354 354/2112/353
f 356/2113/355 357/2114/356 355/2115/354
f 355/2116/354 357/2117/356 354/2118/353
f 356/2119/355 358/2120/357 357/2121/356
f 359/2122/358 360/2123/88 358/2124/357
f 358/2125/357 360/2126/88 357/2127/356
f 259/2128/359 361/2129/360 359/2130/358
f 359/2131/358 361/2132/360 360/2133/88
f 259/2134/359 362/2135/361 361/2136/360
f 363/2137/362 255/2138/363 362/2139/361
f 362/2140/361 255/2141/363 361/2142/360
f 364/2143/364 365/2144/365 363/2145/362
f 363/2146/362 365/2147/365 255/2148/363
f 364/2149/364 366/2150/366 365/2151/365
f 366/2152/366 367/2153/367 365/2154/365
f 368/2155/368 369/2156/369 367/2157/367
f 367/2158/367 369/2159/369 365/2160/365
f 368/2161/368 370/2162/370 369/2163/369
f 370/2164/370 371/2165/371 369/2166/369
f 372/2167/372 373/2168/373 371/2169/371
f 371/2170/371 373/2171/373 369/2172/369
f 372/2173/372 374/2174/374 373/2175/373
f 375/2176/375 291/2177/376 374/2178/374
f 374/2179/374 291/2180/376 373/2181/373
f 375/2182/375 376/2183/377 291/2184/376
f 376/2185/377 377/2186/378 291/2187/376
f 378/2188/379 288/2189/380 377/2190/378
f 377/2191/378 288/2192/380 291/2193/376
f 378/2194/379 287/2195/381 288/2196/380
f 379/2197/12 380/2198/137 287/2199/381
f 287/2200/381 380/2201/137 288/2202/216
f 381/2203/10 382/2204/10 379/2205/12
f 379/2206/12 382/2207/10 380/2208/137
f 381/2209/10 383/2210/382 382/2211/10
f 384/2212/383 385/2213/384 383/2214/382
f 383/2215/382 385/2216/384 382/2217/10
f 386/2218/385 387/2219/386 384/2220/383
f 384/2221/383 387/2222/386 385/2223/384
f 386/2224/385 388/2225/387 387/2226/386
f 388/2227/387 389/2228/388 387/2229/386
f 390/2230/389 391/2231/390 389/2232/388
f 389/2233/388 391/2234/390 387/2235/386
f 390/2236/389 392/2237/391 391/2238/390
f 392/2239/391 393/2240/392 391/2241/390
f 394/2242/393 352/2243/351 393/2244/392
f 393/2245/392 352/2246/351 391/2247/390
f 350/2248/349 352/2249/351 394/2250/393
f 391/2251/390 352/2252/351 369/2253/369
f 352/2254/351 365/2255/365 369/2256/369
f 391/2257/390 369/2258/369 373/2259/373
f 352/2260/351 354/2261/353 365/2262/365
f 391/2263/390 373/2264/373 387/2265/386
f 354/2266/353 255/2267/363 365/2268/365
f 373/2269/373 291/2270/376 387/2271/386
f 357/2272/356 361/2273/360 354/2274/353
f 354/2275/353 361/2276/360 255/2277/363
f 385/2278/384 387/2279/386 291/2280/376
f 360/2281/88 361/2282/360 357/2283/356
f 288/2284/216 382/2285/10 291/2286/376
f 291/2287/376 382/2288/10 385/2289/384
f 380/2290/137 382/2291/10 288/2292/216
f 370/2293/370 368/2294/368 392/2295/391
f 392/2296/391 368/2297/368 394/2298/393
f 392/2299/391 394/2300/393 393/2301/392
f 368/2302/368 367/2303/367 394/2304/393
f 394/2305/393 367/2306/367 366/2307/366
f 394/2308/393 366/2309/366 350/2310/349
f 395/2311/394 372/2312/372 371/2313/371
f 395/2314/394 371/2315/371 390/2316/389
f 390/2317/389 371/2318/371 370/2319/370
f 390/2320/389 370/2321/370 392/2322/391
f 350/2323/349 366/2324/366 364/2325/364
f 364/2326/364 396/2327/395 350/2328/349
f 350/2329/349 396/2330/395 353/2331/352
f 350/2332/349 353/2333/352 351/2334/350
f 388/2335/387 395/2336/394 389/2337/388
f 389/2338/388 395/2339/394 390/2340/389
f 364/2341/364 363/2342/362 396/2343/395
f 375/2344/375 374/2345/374 386/2346/385
f 386/2347/385 374/2348/374 372/2349/372
f 386/2350/385 372/2351/372 388/2352/387
f 388/2353/387 372/2354/372 395/2355/394
f 396/2356/395 363/2357/362 362/2358/361
f 362/2359/361 259/2360/359 396/2361/395
f 396/2362/395 259/2363/359 358/2364/357
f 396/2365/395 358/2366/357 353/2367/352
f 353/2368/352 358/2369/357 356/2370/355
f 353/2371/352 356/2372/355 355/2373/354
f 386/2374/385 384/2375/383 375/2376/375
f 375/2377/375 384/2378/383 376/2379/377
f 358/2380/357 259/2381/359 359/2382/358
f 384/2383/383 383/2384/382 376/2385/377
f 376/2386/377 383/2387/382 381/2388/10
f 376/2389/377 381/2390/10 377/2391/378
f 377/2392/378 381/2393/10 287/2394/381
f 377/2395/378 287/2396/381 378/2397/379
f 287/2398/381 381/2399/10 379/2400/12
v 1.000000 -1.000000 -1.000000
v 1.000000 -1.000000 1.000000
v -1.000000 -1.000000 1.000000
v -1.000000 -1.000000 -1.000000
v 1.000000 1.000000 -0.999999
v 0.999999 1.000000 1.000001
v -1.000000 1.000000 1.000000
v -1.000000 1.000000 -1.000000
vn 0.0000 -1.0000 0.0000
vn 0.0000 1.0000 0.0000
vn 1.0000 -0.0000 0.0000
vn 0.0000 -0.0000 1.0000
vn -1.0000 -0.0000 -0.0000
vn 0.0000 0.0000 -1.0000
s off
f 398//396 400//396 397//396
f 404//397 402//397 401//397
f 401//398 398//398 397//398
f 402//399 399//399 398//399
f 399//400 404//400 400//400
f 397//401 404//401 401//401
f 398//396 399//396 400//396
f 404//397 403//397 402//397
f 401//398 402//398 398//398
f 402//399 403//399 399//399
f 399//400 403//400 404//400
f 397//401 400//401 404//401
