%YAML 1.1
%TAG !u! tag:unity3d.com,2011:
--- !u!21 &2100000
Material:
  serializedVersion: 6
  m_ObjectHideFlags: 0
  m_CorrespondingSourceObject: {fileID: 0}
  m_PrefabInternal: {fileID: 0}
  m_Name: TestMaterial Occlusion
  m_Shader: {fileID: 4800000, guid: 86a383aa28d6d9d438388de19d876240, type: 3}
  m_ShaderKeywords: _SPECULARHIGHLIGHTS_ON _USEAMBIENT_ON _USEDIFFUSE_ON _USEMAINTEX_ON
    _USEOCCLUSIONMAP_ON _USE_GRADIENT_ON
  m_LightmapFlags: 4
  m_EnableInstancingVariants: 0
  m_DoubleSidedGI: 0
  m_CustomRenderQueue: -1
  stringTagMap: {}
  disabledShaderPasses: []
  m_SavedProperties:
    serializedVersion: 3
    m_TexEnvs:
    - _AO:
        m_Texture: {fileID: 0}
        m_Scale: {x: 1, y: 1}
        m_Offset: {x: 0, y: 0}
    - _ActivePOITex:
        m_Texture: {fileID: 0}
        m_Scale: {x: 1, y: 1}
        m_Offset: {x: 0, y: 0}
    - _BumpMap:
        m_Texture: {fileID: 0}
        m_Scale: {x: 1, y: 1}
        m_Offset: {x: 0, y: 0}
    - _CubeMap:
        m_Texture: {fileID: 0}
        m_Scale: {x: 1, y: 1}
        m_Offset: {x: 0, y: 0}
    - _DetailAlbedoMap:
        m_Texture: {fileID: 0}
        m_Scale: {x: 1, y: 1}
        m_Offset: {x: 0, y: 0}
    - _DetailMask:
        m_Texture: {fileID: 0}
        m_Scale: {x: 1, y: 1}
        m_Offset: {x: 0, y: 0}
    - _DetailNormalMap:
        m_Texture: {fileID: 0}
        m_Scale: {x: 1, y: 1}
        m_Offset: {x: 0, y: 0}
    - _EdgeMap:
        m_Texture: {fileID: 0}
        m_Scale: {x: 1, y: 1}
        m_Offset: {x: 0, y: 0}
    - _EmissionMap:
        m_Texture: {fileID: 0}
        m_Scale: {x: 1, y: 1}
        m_Offset: {x: 0, y: 0}
    - _EmissionTex:
        m_Texture: {fileID: 0}
        m_Scale: {x: 1, y: 1}
        m_Offset: {x: 0, y: 0}
    - _GlossMap:
        m_Texture: {fileID: 0}
        m_Scale: {x: 1, y: 1}
        m_Offset: {x: 0, y: 0}
    - _Gradient:
        m_Texture: {fileID: 0}
        m_Scale: {x: 1, y: 1}
        m_Offset: {x: 0, y: 0}
    - _MainTex:
        m_Texture: {fileID: 2800000, guid: d9a7fde2929bcba4a97380b555c9d16f, type: 3}
        m_Scale: {x: 1, y: 1}
        m_Offset: {x: 0, y: 0}
    - _MetallicGlossMap:
        m_Texture: {fileID: 0}
        m_Scale: {x: 1, y: 1}
        m_Offset: {x: 0, y: 0}
    - _MetallicSmooth:
        m_Texture: {fileID: 0}
        m_Scale: {x: 1, y: 1}
        m_Offset: {x: 0, y: 0}
    - _Noise:
        m_Texture: {fileID: 0}
        m_Scale: {x: 1, y: 1}
        m_Offset: {x: 0, y: 0}
    - _Normal:
        m_Texture: {fileID: 0}
        m_Scale: {x: 1, y: 1}
        m_Offset: {x: 0, y: 0}
    - _OcclusionMap:
        m_Texture: {fileID: 2800000, guid: eb3261f285f6b0549afe00416ae3a6da, type: 3}
        m_Scale: {x: 1, y: 1}
        m_Offset: {x: 0, y: 0}
    - _ParallaxMap:
        m_Texture: {fileID: 0}
        m_Scale: {x: 1, y: 1}
        m_Offset: {x: 0, y: 0}
    - _SpecGlossMap:
        m_Texture: {fileID: 0}
        m_Scale: {x: 1, y: 1}
        m_Offset: {x: 0, y: 0}
    - _SpecularMap:
        m_Texture: {fileID: 0}
        m_Scale: {x: 1, y: 1}
        m_Offset: {x: 0, y: 0}
    - _txAlbedo:
        m_Texture: {fileID: 0}
        m_Scale: {x: 1, y: 1}
        m_Offset: {x: 0, y: 0}
    - _txAlpha:
        m_Texture: {fileID: 0}
        m_Scale: {x: 1, y: 1}
        m_Offset: {x: 0, y: 0}
    - _txAmbient:
        m_Texture: {fileID: 0}
        m_Scale: {x: 1, y: 1}
        m_Offset: {x: 0, y: 0}
    - _txEmission:
        m_Texture: {fileID: 0}
        m_Scale: {x: 1, y: 1}
        m_Offset: {x: 0, y: 0}
    - _txNormal:
        m_Texture: {fileID: 0}
        m_Scale: {x: 1, y: 1}
        m_Offset: {x: 0, y: 0}
    - _txOcclusion:
        m_Texture: {fileID: 0}
        m_Scale: {x: 1, y: 1}
        m_Offset: {x: 0, y: 0}
    - _txReflection:
        m_Texture: {fileID: 0}
        m_Scale: {x: 1, y: 1}
        m_Offset: {x: 0, y: 0}
    - _txSpecular:
        m_Texture: {fileID: 0}
        m_Scale: {x: 1, y: 1}
        m_Offset: {x: 0, y: 0}
    m_Floats:
    - _AlphaTest: 0
    - _BlendOp: 0
    - _Brightness: 1
    - _BumpScale: 1
    - _CalibrationSpaceReflections: 0
    - _ColorMask: 15
    - _ColorWriteMask: 15
    - _Cull: 2
    - _Cutoff: 0.5
    - _DetailNormalMapScale: 1
    - _DisplaceAmount: 1.5
    - _DstBlend: 0
    - _EdgeSize: 0.2
    - _EdgeThreshold: 0.1
    - _ExhibitionMode: 0
    - _ForcePerPixel: 0
    - _Gloss: 0.5
    - _GlossMapScale: 1
    - _Glossiness: 0.5
    - _GlossyReflections: 1
    - _Metallic: 0
    - _Mode: 0
    - _NoiseStrength: 0.4
    - _OcclusionStrength: 1
    - _OnOff: 0
    - _Opacity: 1
    - _Parallax: 0.02
    - _Radius: 0.1
    - _ReflectionScale: 2
    - _RimPower: 0.7
    - _Shade4: 0
    - _SmoothnessTextureChannel: 0
    - _Specular: 0.5
    - _SpecularHighlights: 1
    - _SrcBlend: 1
    - _Stencil: 0
    - _StencilComp: 8
    - _StencilOp: 0
    - _StencilReadMask: 255
    - _StencilWriteMask: 255
    - _UVSec: 0
    - _UseAmbient: 1
    - _UseBumpMap: 0
    - _UseColor: 0
    - _UseDiffuse: 1
    - _UseEmissionColor: 0
    - _UseEmissionMap: 0
    - _UseEmissionTex: 0
    - _UseGlossMap: 0
    - _UseMainColor: 0
    - _UseMainTex: 1
    - _UseOcclusionMap: 0
    - _UseReflections: 0
    - _UseRimLighting: 0
    - _UseSpecularMap: 0
    - _UseVertexColor: 0
    - _Use_Gradient: 1
    - _ZTest: 4
    - _ZWrite: 1
    - _bEnableAlphaFresnel: 0
    - _bEnableFresnel: 0
    - _bEnableHalfLambert: 0
    - _cutoff: 0
    - _fAlphaScale: 1
    - _fDiffuseIntensity: 1
    - _fFresnelExp: 1
    - _fFresnelMin: 1
    - _fHalfLambertExp: 1
    - _fSpecularPower: 1
    m_Colors:
    - _ActivePOIColor: {r: 0, g: 0, b: 0, a: 0}
    - _Color: {r: 1, g: 1, b: 1, a: 1}
    - _EdgeColor1: {r: 1, g: 1, b: 1, a: 1}
    - _Emission: {r: 0, g: 0, b: 0, a: 0}
    - _EmissionColor: {r: 0, g: 0, b: 0, a: 1}
    - _GazeUV: {r: 0.5, g: 0.5, b: 0, a: 0}
    - _RimColor: {r: 1, g: 1, b: 1, a: 1}
    - _SpecColor: {r: 0.2, g: 0.2, b: 0.2, a: 1}
    - _TextureScaleOffset: {r: 1, g: 1, b: 0, a: 0}
    - _cAlbedo: {r: 0, g: 0, b: 0, a: 1}
    - _cAmbient: {r: 0, g: 0, b: 0, a: 1}
    - _cEmission: {r: 0, g: 0, b: 0, a: 1}
    - _cReflection: {r: 0, g: 0, b: 0, a: 1}
    - _cSpecular: {r: 0, g: 0, b: 0, a: 1}
